<?xml version="1.0" encoding="utf-8"?>
<!-- Generator: Adobe Illustrator 22.0.1, SVG Export Plug-In . SVG Version: 6.00 Build 0)  -->
<svg version="1.1" id="Layer_1" xmlns="http://www.w3.org/2000/svg" xmlns:xlink="http://www.w3.org/1999/xlink" x="0px" y="0px"
	 viewBox="0 0 156 72" style="enable-background:new 0 0 156 72;" xml:space="preserve">
<style type="text/css">
	.st0{fill:#F5CE3E;}
	.st1{fill:#FFFFFF;}
</style>
<g id="CharlotteNC">
	<g>
		<rect x="10.6" y="2.3" class="st0" width="3" height="69.7"/>
	</g>
	<g>
		<circle class="st0" cx="12.1" cy="2.3" r="2.3"/>
	</g>
	<g>
		<g>
			<path class="st0" d="M156,28.4c-52,8.7-104-8.7-156,0C0,22.6,0,16.8,0,11c52-8.7,104,8.7,156,0c-2.9,3.4-5.8,6.7-8.7,9.9
				C150.2,23.5,153.1,26,156,28.4z"/>
		</g>
		<g>
			<g>
				<path class="st1" d="M26.9,19.2c-0.6,0.6-1.3,1.1-2.3,1.1c-1.5,0.1-3-1.2-3-2.8c0-1.5,1.3-3,3-3c1,0,1.7,0.4,2.1,0.9
					c-0.3,0.2-0.5,0.4-0.8,0.7c-0.4-0.4-0.8-0.7-1.3-0.7c-0.9,0-1.9,0.9-1.9,2s0.8,1.9,1.9,1.9c0.5,0,1.1-0.4,1.4-0.8
					C26.4,18.7,26.6,18.9,26.9,19.2z"/>
			</g>
			<g>
				<path class="st1" d="M35.8,20c0-0.8,0-1.6,0-2.4c-0.9,0-1.8,0-2.7,0c0,0.8,0,1.6,0,2.4c-0.4,0-0.7,0-1.1,0c0-1.9,0-3.8,0-5.6
					c0.4,0,0.7,0,1.1,0c0,0.8,0,1.6,0,2.4c0.9,0,1.8,0,2.7,0c0-0.8,0-1.6,0-2.4c0.4,0,0.7,0,1.1,0c0,1.9,0,3.8,0,5.6
					C36.5,20,36.2,20,35.8,20z"/>
			</g>
			<g>
				<path class="st1" d="M43.3,19c-0.2,0.4-0.4,0.8-0.5,1.2c-0.4,0-0.8,0-1.1,0c0.9-1.9,1.8-3.8,2.7-5.7c0.9,2,1.8,3.9,2.7,5.9
					c-0.4,0-0.7,0-1.1,0c-0.2-0.4-0.4-0.8-0.5-1.3C44.8,19,44.1,19,43.3,19z M44.4,16.5c-0.2,0.5-0.5,1-0.7,1.6c0.5,0,0.9,0,1.4,0.1
					C44.9,17.6,44.6,17.1,44.4,16.5z"/>
			</g>
			<g>
				<path class="st1" d="M54.2,15.1c1.1,0.1,2,0.8,2,1.8c0,0.8-0.5,1.3-1.1,1.5c0.4,0.8,0.8,1.7,1.3,2.5c-0.4,0-0.8-0.1-1.2-0.1
					c-0.4-0.8-0.8-1.6-1.2-2.4c-0.3,0-0.6,0-1-0.1c0,0.8,0,1.6,0,2.3c-0.3,0-0.7,0-1-0.1c0-1.9,0-3.8,0-5.6
					C52.7,15,53.4,15,54.2,15.1z M53,17.4c0.4,0,0.8,0,1.3,0.1c0.6,0,0.9-0.2,0.9-0.7c0-0.4-0.3-0.8-0.9-0.8c-0.4,0-0.8,0-1.2-0.1
					C53,16.4,53,16.9,53,17.4z"/>
			</g>
			<g>
				<path class="st1" d="M65.1,20.6c0,0.3,0,0.6,0,0.9c-1.2-0.1-2.4-0.2-3.7-0.3c0-1.9,0-3.8,0-5.6c0.4,0,0.7,0.1,1.1,0.1
					c0,1.6,0,3.1,0,4.7C63.3,20.4,64.2,20.5,65.1,20.6z"/>
			</g>
			<g>
				<path class="st1" d="M75.5,19.5c0,1.5-1.2,2.8-2.9,2.7c-1.7-0.1-2.9-1.5-2.9-3.2c0-1.6,1.2-2.8,2.9-2.7
					C74.1,16.5,75.5,17.8,75.5,19.5z M70.7,19.1c0,1.1,0.8,2,1.9,2.1c1,0.1,1.9-0.7,1.9-1.8c0-1-0.9-2-1.9-2.1
					C71.5,17.2,70.7,18,70.7,19.1z"/>
			</g>
			<g>
				<path class="st1" d="M82.5,18.2c0,1.6,0,3.1,0,4.7c-0.4,0-0.7-0.1-1.1-0.1c0-1.6,0-3.1,0-4.7c-0.5,0-1.1-0.1-1.6-0.1
					c0-0.3,0-0.6,0-0.9c1.4,0.1,2.9,0.2,4.3,0.4c0,0.3,0,0.6,0,0.9C83.6,18.3,83.1,18.2,82.5,18.2z"/>
			</g>
			<g>
				<path class="st1" d="M91.3,18.9c0,1.6,0,3.1,0,4.7c-0.4,0-0.7-0.1-1.1-0.1c0-1.6,0-3.1,0-4.7c-0.5,0-1.1-0.1-1.6-0.1
					c0-0.3,0-0.6,0-0.9c1.4,0.1,2.9,0.2,4.3,0.3c0,0.3,0,0.6,0,0.9C92.4,19,91.8,18.9,91.3,18.9z"/>
			</g>
			<g>
				<path class="st1" d="M98.7,19.4c0,0.5,0,0.9,0,1.4c0.7,0,1.5,0.1,2.2,0.1c0,0.3,0,0.6,0,0.9c-0.7,0-1.5-0.1-2.2-0.1
					c0,0.5,0,1,0,1.5c0.9,0.1,1.8,0.1,2.7,0.2c0,0.3,0,0.6,0,0.9c-1.3-0.1-2.5-0.2-3.8-0.2c0-1.9,0-3.8,0-5.6
					c1.3,0.1,2.5,0.2,3.8,0.2c0,0.3,0,0.6,0,0.9C100.5,19.5,99.6,19.5,98.7,19.4z"/>
			</g>
			<g>
				<path class="st1" d="M106.6,24.1c0-0.3,0.3-0.6,0.6-0.6c0.4,0,0.6,0.3,0.6,0.6c0,0.1,0,0.2-0.1,0.3c-0.3,0.4-0.6,0.8-0.8,1.3
					c-0.1,0-0.2,0-0.3,0C106.6,25.2,106.6,24.6,106.6,24.1z"/>
			</g>
			<g>
				<path class="st1" d="M122.9,19.4c0.4,0,0.7,0,1.1,0c0,1.9,0,3.9,0,5.8c-1.3-1.2-2.6-2.4-3.8-3.7c0,1.2,0,2.3,0,3.5
					c-0.4,0-0.7,0-1.1,0c0-1.9,0-3.9,0-5.8c1.3,1.2,2.6,2.5,3.8,3.7C122.9,21.7,122.9,20.6,122.9,19.4z"/>
			</g>
			<g>
				<path class="st1" d="M134.2,23.9c-0.6,0.6-1.3,1.1-2.3,1.1c-1.5,0.1-3-1.2-3-2.8c0-1.5,1.3-2.9,3-3c1,0,1.7,0.4,2.1,0.9
					c-0.3,0.2-0.5,0.5-0.8,0.7c-0.4-0.4-0.8-0.7-1.3-0.6c-0.9,0-1.9,0.9-1.9,2s0.8,1.9,1.9,1.9c0.5,0,1.1-0.4,1.4-0.8
					C133.6,23.4,133.9,23.7,134.2,23.9z"/>
			</g>
		</g>
	</g>
</g>
</svg>
