<?xml version="1.0" encoding="utf-8"?>
<!-- Generator: Adobe Illustrator 22.0.1, SVG Export Plug-In . SVG Version: 6.00 Build 0)  -->
<svg version="1.1" id="Layer_1" xmlns="http://www.w3.org/2000/svg" xmlns:xlink="http://www.w3.org/1999/xlink" x="0px" y="0px"
	 viewBox="0 0 165.5 72" style="enable-background:new 0 0 165.5 72;" xml:space="preserve">
<style type="text/css">
	.st0{fill:#F5CE3E;}
	.st1{fill:#FFFFFF;}
</style>
<g id="CharlestonSC">
	<g>
		<rect x="10.7" y="2.3" class="st0" width="3" height="69.7"/>
	</g>
	<g>
		<circle class="st0" cx="12.2" cy="2.3" r="2.3"/>
	</g>
	<g>
		<g>
			<path class="st0" d="M165.5,28.4c-55.2,8.7-110.3-8.7-165.5,0C0,22.6,0,16.8,0,11c55.2-8.7,110.3,8.7,165.5,0
				c-2.9,3.4-5.8,6.7-8.7,9.9C159.7,23.4,162.6,26,165.5,28.4z"/>
		</g>
		<g>
			<g>
				<path class="st1" d="M27,19.2c-0.6,0.6-1.3,1.1-2.3,1.1c-1.5,0.1-3-1.2-3-2.8c0-1.5,1.3-3,3-3c1,0,1.7,0.4,2.1,0.9
					c-0.3,0.2-0.5,0.4-0.8,0.7c-0.4-0.4-0.8-0.7-1.3-0.6c-0.9,0-1.9,0.9-1.9,2s0.8,1.9,1.9,1.9c0.5,0,1.1-0.4,1.4-0.8
					C26.4,18.7,26.7,19,27,19.2z"/>
			</g>
			<g>
				<path class="st1" d="M35.9,20c0-0.8,0-1.6,0-2.4c-0.9,0-1.8,0-2.7,0c0,0.8,0,1.6,0,2.4c-0.4,0-0.7,0-1.1,0c0-1.9,0-3.8,0-5.6
					c0.4,0,0.7,0,1.1,0c0,0.8,0,1.6,0,2.4c0.9,0,1.8,0,2.7,0c0-0.8,0-1.6,0-2.4c0.4,0,0.7,0,1.1,0c0,1.9,0,3.8,0,5.6
					C36.6,20,36.2,20,35.9,20z"/>
			</g>
			<g>
				<path class="st1" d="M43.4,18.9c-0.2,0.4-0.4,0.8-0.5,1.2c-0.4,0-0.8,0-1.1,0c0.9-1.9,1.8-3.8,2.7-5.7c0.9,2,1.8,3.9,2.7,5.9
					c-0.4,0-0.7,0-1.1,0c-0.2-0.4-0.4-0.8-0.5-1.3C44.9,18.9,44.1,18.9,43.4,18.9z M44.5,16.4c-0.2,0.5-0.5,1-0.7,1.6
					c0.5,0,0.9,0,1.4,0C45,17.5,44.7,17,44.5,16.4z"/>
			</g>
			<g>
				<path class="st1" d="M54.3,14.9c1.1,0.1,2,0.7,2,1.8c0,0.8-0.5,1.3-1.1,1.5c0.4,0.8,0.8,1.7,1.3,2.5c-0.4,0-0.8,0-1.2-0.1
					c-0.4-0.8-0.8-1.6-1.2-2.4c-0.3,0-0.6,0-1,0c0,0.8,0,1.6,0,2.3c-0.3,0-0.7,0-1,0c0-1.9,0-3.8,0-5.6
					C52.8,14.8,53.5,14.8,54.3,14.9z M53,17.2c0.4,0,0.8,0,1.3,0.1c0.6,0,0.9-0.2,0.9-0.7c0-0.4-0.3-0.7-0.9-0.8
					c-0.4,0-0.8,0-1.2-0.1C53,16.2,53,16.7,53,17.2z"/>
			</g>
			<g>
				<path class="st1" d="M65.1,20.3c0,0.3,0,0.6,0,0.9c-1.2-0.1-2.4-0.2-3.7-0.2c0-1.9,0-3.8,0-5.6c0.4,0,0.7,0,1.1,0.1
					c0,1.6,0,3.1,0,4.7C63.4,20.1,64.3,20.2,65.1,20.3z"/>
			</g>
			<g>
				<path class="st1" d="M71,16.9c0,0.5,0,0.9,0,1.4c0.7,0.1,1.5,0.1,2.2,0.2c0,0.3,0,0.6,0,0.9c-0.7-0.1-1.5-0.1-2.2-0.2
					c0,0.5,0,1,0,1.5c0.9,0.1,1.8,0.1,2.7,0.2c0,0.3,0,0.6,0,0.9c-1.3-0.1-2.5-0.2-3.8-0.3c0-1.9,0-3.8,0-5.6
					c1.3,0.1,2.5,0.2,3.8,0.3c0,0.3,0,0.6,0,0.9C72.8,17,71.9,17,71,16.9z"/>
			</g>
			<g>
				<path class="st1" d="M80.4,19.7c-0.9-0.4-1.3-1-1.3-1.8c0-0.9,0.8-1.4,1.7-1.4c0.7,0.1,1.4,0.4,2,0.8c-0.2,0.3-0.3,0.5-0.5,0.8
					c-0.7-0.4-1.1-0.6-1.4-0.6c-0.6,0-0.8,0.3-0.8,0.6c0,0.2,0.1,0.5,0.5,0.6c0.4,0.2,0.7,0.3,1.1,0.5c0.9,0.4,1.3,1,1.3,1.7
					c0,1-0.9,1.6-2,1.5c-0.6,0-1.5-0.4-2.3-1c0.2-0.3,0.3-0.5,0.5-0.8c0.8,0.6,1.3,0.8,1.9,0.8c0.5,0,0.8-0.3,0.8-0.6
					c0-0.4-0.3-0.6-0.6-0.7C81,20,80.7,19.9,80.4,19.7z"/>
			</g>
			<g>
				<path class="st1" d="M90.3,18.4c0,1.6,0,3.1,0,4.7c-0.4,0-0.7-0.1-1.1-0.1c0-1.6,0-3.1,0-4.7c-0.5,0-1.1-0.1-1.6-0.1
					c0-0.3,0-0.6,0-0.9c1.4,0.1,2.9,0.2,4.3,0.3c0,0.3,0,0.6,0,0.9C91.4,18.5,90.8,18.4,90.3,18.4z"/>
			</g>
			<g>
				<path class="st1" d="M102.2,21.1c0,1.5-1.2,2.8-2.9,2.7s-2.9-1.5-2.9-3.1s1.2-2.8,2.9-2.7C100.8,18.1,102.2,19.5,102.2,21.1z
					 M97.4,20.8c0,1.1,0.8,2,1.9,2.1c1,0.1,1.9-0.7,1.9-1.8c0-1-0.9-2-1.9-2.1C98.2,18.9,97.4,19.7,97.4,20.8z"/>
			</g>
			<g>
				<path class="st1" d="M111,18.8c0.4,0,0.7,0,1.1,0.1c0,1.9,0,3.9,0,5.8c-1.3-1.3-2.6-2.6-3.8-3.9c0,1.2,0,2.3,0,3.5
					c-0.4,0-0.7,0-1.1-0.1c0-1.9,0-3.9,0-5.8c1.3,1.3,2.6,2.6,3.8,3.9C111,21.2,111,20,111,18.8z"/>
			</g>
			<g>
				<path class="st1" d="M117.3,24.3c0-0.3,0.3-0.6,0.6-0.6c0.4,0,0.6,0.3,0.6,0.6c0,0.1,0,0.2-0.1,0.3c-0.3,0.4-0.6,0.9-0.8,1.3
					c-0.1,0-0.2,0-0.3,0C117.3,25.3,117.3,24.8,117.3,24.3z"/>
			</g>
			<g>
				<path class="st1" d="M131.1,22.4c-0.9-0.3-1.3-0.8-1.3-1.7s0.8-1.5,1.7-1.5c0.7,0,1.4,0.3,2,0.6c-0.2,0.3-0.3,0.6-0.5,0.9
					c-0.7-0.4-1.1-0.5-1.4-0.5c-0.6,0-0.8,0.4-0.8,0.6s0.1,0.5,0.5,0.6s0.7,0.3,1.1,0.4c0.9,0.3,1.3,0.9,1.3,1.6c0,1-0.9,1.7-2,1.7
					c-0.6,0-1.5-0.3-2.3-0.8c0.2-0.3,0.3-0.6,0.5-0.9c0.8,0.5,1.3,0.7,1.9,0.7c0.5,0,0.8-0.3,0.8-0.7s-0.3-0.6-0.6-0.7
					C131.7,22.7,131.4,22.5,131.1,22.4z"/>
			</g>
			<g>
				<path class="st1" d="M143.7,23.8c-0.6,0.6-1.3,1.1-2.3,1.1c-1.5,0.1-3-1.2-3-2.8c0-1.5,1.3-3,3-3c1,0,1.7,0.4,2.1,0.9
					c-0.3,0.2-0.5,0.5-0.8,0.7c-0.4-0.4-0.8-0.7-1.3-0.6c-0.9,0-1.9,0.9-1.9,2s0.8,1.9,1.9,1.9c0.5,0,1.1-0.4,1.4-0.8
					C143.1,23.4,143.4,23.6,143.7,23.8z"/>
			</g>
		</g>
	</g>
</g>
</svg>
