<?xml version="1.0" encoding="utf-8"?>
<!-- Generator: Adobe Illustrator 22.0.1, SVG Export Plug-In . SVG Version: 6.00 Build 0)  -->
<svg version="1.1" id="Layer_1" xmlns="http://www.w3.org/2000/svg" xmlns:xlink="http://www.w3.org/1999/xlink" x="0px" y="0px"
	 viewBox="0 0 720.7 429.5" style="enable-background:new 0 0 720.7 429.5;" xml:space="preserve">
<style type="text/css">
	.st0{opacity:0.25;}
	.st1{fill:none;}
	.st2{fill:#F5CE3E;}
</style>
<g id="Map" class="st0">
	<path class="st1" d="M484.9,326.3c-2.9,3.4-14.3,16.9-16.4,18.4c-1.9,1.4-5.4,11-5.3,12.6c0.3,0.6,0.4,2.6-7.4,17.4l-0.1,0.2
		l-7.6,9.5l-3.9-7.5l-12.4-10l-4-2.2l-0.6,4.3l2.9,3.3v6.2l-4.5,8.1h-26.3v15.3l2,3l7.1,8.6l2.6,8.5l0.2,0.2c1-0.5,2.4-1,4.6-1.1
		c0.7,0,1.3,0,1.9,0c1.3,0,1.7,0,2.1-0.3c0.9-0.6,2-2.1,3-3.5c1.3-1.7,2.5-3.4,4.2-4.8c6-5.1,11.7-9.8,16.5-16.4l1.5-2
		c4.3-6,9.3-12.8,14.8-17.4l1.3-1.1c4.7-3.9,8.1-6.7,10.4-12.1c2.8-6.6,6.8-10.6,14.1-14.1c1.4-0.7,3-1.2,4.6-1.7
		c2.5-0.8,5.2-1.6,6.3-3.1c0.9-1.2,1.4-2.6,2-4.3c0.5-1.5,1.1-3.2,2.1-4.8c0.3-0.5,0.6-0.9,0.9-1.3l-6.1-2.4L484.9,326.3z"/>
	<path class="st1" d="M287.3,330.7l-15.9,17.7l-9.6,14l-1.1,1.7c3.9,2.4,8.2,4.5,12.9,6.6c0.3,0.1,0.5,0.2,0.7,0.3l5.5-3.5h30.7
		l3.7-2.6l-1.4-1l-2.9-2.6V331l-18.8-6.2L287.3,330.7z"/>
	<path class="st1" d="M153,285.8l-3.4,3.3h-6l-3.3,2.8l-7.6,11.2c-1.4,3.1-2.7,7-2.5,7.9l0.4,1.8l3.2,7.9l3.2,4.3l6.2,5.4l16.3,1.6
		l2.3-2.7l0.3-0.1c4.7-1.5,7.6-2.2,8.7-1.9c0.5-0.2,1.6-1.5,2.4-2.8l0.3-0.4h0.5c1.7-0.1,3.6-0.3,5.2-0.5l-19.8-38.2L153,285.8z"/>
	<polygon class="st1" points="135.5,326.2 132.6,322.2 130.3,322.7 130.2,325.6 130.2,325.6 130.3,337.7 133.6,337.7 133.6,349.7 
		145,349.7 146.8,346.8 157.9,333.8 142.4,332.3 	"/>
	<path class="st1" d="M280.5,369.5l-4,2.5c7.3,3.7,11,7.9,15.2,14.5c5.5,8.4,8.5,16.7,11,25.3l11.2-10v-13.7l12.7-11.8l-9.7-9.4
		l-1-0.7l-4.7,3.4L280.5,369.5L280.5,369.5z"/>
	<path class="st1" d="M406.6,414.5l-7-8.4l-2.4-3.6v-38.9l-13.9-0.6v1.2l-3,3.2l-8.4-6.9l-18.1-8.2l-11.4,12.1l-12.8,11.9l32.7,31.7
		l6.9,3.6l26.2,14l3,1.2v-0.1l0.3-2.4l2.5-0.1c3.2-0.2,5.5-0.3,8.1-1.1l0,0L406.6,414.5z"/>
	<path class="st1" d="M269.9,347.1l15.9-17.7l7.7-12.1l10.2-14.7l-2.8-3.4h-17.7l-8.2-7.5l-3.3-5.6l-2.7-4.4l-5-1.4l-1.2,2.6
		l-1.5,4.8l-4.5,4.5h-1.6v5.3l-7.7,7.6l-8.8,7.8c0.5,1.2,1.2,3.4,0.5,4.7c-0.3,0.6-0.8,1-1.5,1.1c-1,0.2-4,3.6-7,7.4
		c0.7,0.3,1.3,0.7,1.9,1.2c3.2,2.4,5.6,5.6,8,8.8c0.6,0.8,1.2,1.6,1.8,2.4c2.2,2.8,2.8,5.7,3.4,8.4c0.4,1.7,0.7,3.4,1.4,4.9
		c0.6,1.2,1.5,2.1,2.7,3.2c0.5,0.5,1.1,1,1.6,1.5c2.4,2.5,5,4.6,7.8,6.5l1.1-1.7L269.9,347.1z"/>
	<polygon class="st1" points="276.2,45.9 284.7,54.4 294.2,62.3 296.2,81.6 307.4,75.2 311.2,75.2 314.2,72.9 308.3,57.1 
		308.3,48.3 310,48.3 310,22.3 306.9,11.3 291.2,12.1 278,16.9 274.9,45.9 	"/>
	<polygon class="st1" points="312,34.7 321.2,37.8 337.5,41.1 340.2,15.6 327.4,10.2 308.9,11.2 312,22.1 	"/>
	<path class="st1" d="M71,311.4l7.9,6.2l9.6,9.2l7.8-8.4c-0.8-1.6-0.8-5.1,0-10.3l-1.2,0.5l-8.2-3.9l-13.1-7l-1.4,0.9l-7.7,6.3v3.7
		l1.1,1.6L71,311.4z"/>
	<polygon class="st1" points="352,351.3 336.4,340.5 325,335.8 312,331.5 312,360.3 314.2,362.3 318.3,365.3 328.2,374.9 341,363 	
		"/>
	<polygon class="st1" points="66.1,291 73.8,295.4 81.2,290.6 90,287.7 88.5,286.1 84.4,279.7 80,272.9 81.3,269.7 73.4,267.1 
		58.9,262.6 55.3,266.8 46.1,279.9 42.9,284.1 43.6,284.3 	"/>
	<path class="st1" d="M52.9,190.8l-2.4,3.6l5.8,3.7l10.9,4.3l7.8-0.6c0-0.2,0-0.4,0-0.6c-0.1-1.6-0.3-3.3,0.2-4.9
		c0.5-2,1.8-3.4,2.9-4.6c0.4-0.4,0.8-0.9,1-1.2l0.1-0.1c0.6-0.8,1-1.9,1.5-2.9c0.4-1,0.8-1.9,1.4-2.8c1.2-2,2.9-3.1,4.3-4
		c0.8-0.5,1.5-0.9,2-1.5l0.3-0.3l0.3-0.2c0.1-0.1,0.3-0.3,0.4-0.4c0.4-0.4,0.9-0.9,1.5-1.4l-0.1-6.3L53,175.9L52.9,190.8L52.9,190.8
		z"/>
	<polygon class="st1" points="467.3,36.6 449,51.8 467.6,68.6 470.1,69.4 480.5,46.9 478.3,41.1 478.3,37.7 476.2,39.5 	"/>
	<polygon class="st1" points="245.3,92.4 246.7,94.4 294.9,91.9 294.4,88.4 294.4,83.3 293.2,71.8 241.8,80.2 	"/>
	<polygon class="st1" points="82,292.4 75.8,296.4 87.9,302.9 95.2,306.3 99.8,304.4 96.9,298.2 94.7,292.1 91.6,289.2 	"/>
	<path class="st1" d="M155.6,246c1-0.9,2.8-2,4.7-3.3c2.8-1.9,6.7-4.5,7.3-5.6c1.1-2.2,6.8-8.3,7.8-9.4l4.5-8.3l0.2-0.1l-0.8-0.8
		l-6.7-2.7l-6.6-5l-0.1-0.3c-1-3.7-3-9.4-4.2-10.2c-1.8-1.3-1.1-2.9-0.7-3.9c0.3-0.6,0.4-1,0.3-1.4c-0.5-1.7-2.8-7-2.8-7l-0.1-0.2
		v-0.1l-7,3.4l-7.3,4.9l-5.5,7.1l-8.8,5.3l-6.4,11.3c5.1,2.2,11.3,9.7,11.4,9.8c3.1,3.8,5,8.3,6.9,12.6c0.4,0.8,0.7,1.6,1.1,2.4
		c1.7,3.7,3.7,7.5,6.2,11.4l2.5-2.7C152,251.9,153.2,248.1,155.6,246z"/>
	<path class="st1" d="M237.2,316.8c0.3-0.3,0-2.1-0.7-3.7l-0.3-0.7l9.8-8.8l7.1-7v-4.5h-1.5l-5.5-3h-7l-7.4-14.4h-8.9l-3.5,4.3h-0.2
		l-10.9,5.8v24.8c0.1,0.1,0.2,0.2,0.3,0.2c1.4,1,2.8,2,4.2,3.3c1.6,1.5,2.8,3.1,4,4.7c1.2,1.6,2.3,3.1,3.6,4.2
		c1.3,1.2,3.1,1.6,5.2,2.2c1.1,0.3,2.2,0.6,3.3,1C231.3,321.9,235.3,317.1,237.2,316.8z"/>
	<path class="st1" d="M214.6,279.1h-15.8l-6,5.3l-4.3-11.1c-1.6-0.1-5.3-0.3-6.7-1.8c-0.6-0.1-3,1.7-4.8,3.7l-0.6,0.6l-5.8-3.7
		l-2.6,3.5l-1.1,7.2c1.2,0.4,2.5,0.7,3.4,0.9c1.5,0.4,2.8,0.7,3.6,1c3.2,1.2,5.9,2.8,8.5,4.4c0.8,0.5,1.6,1,2.4,1.4
		c1.4,0.8,3.1,1.4,4.9,2.1c2.2,0.8,4.5,1.6,6.6,3c2.8,1.9,3.9,4.1,5,6.3c0.6,1.3,1.2,2.5,2.2,3.7c0.7,0.9,1.6,1.7,2.5,2.5v-24.5
		L214.6,279.1z"/>
	<polygon class="st1" points="50.9,233.3 54.8,231.8 49,204 44.8,200.5 34.8,204.3 32.5,207.7 29.9,214 32.5,236.5 50.9,236.5 	"/>
	<polygon class="st1" points="54.2,199.1 49.5,196 48.5,197.4 46.5,199.3 49.9,202.2 	"/>
	<path class="st1" d="M170.1,269.5l6,3.8c1.2-1.2,3.9-3.7,5.7-3.7c0.6,0,1.1,0.2,1.4,0.6c0.7,0.7,3.2,1.1,5.2,1.2l1.3-5.5l5.6-7.3
		l-2.6-3.7l-4.4-6.7l-1.8-3.1l-4.3-3.6v-4.2l0.3-0.3c1.1-1.1,2.2-2.5,2.3-2.9c0-0.8,1.2-6.2,1.7-8.6l-2.9-2.6l-2-2l-0.3,0.2
		l-4.4,8.1c-1.8,1.9-6.7,7.3-7.6,9c-0.8,1.5-3.7,3.5-8,6.4c-1.8,1.2-3.6,2.4-4.5,3.2c-2.3,2-3.4,6.2-3.4,6.2l-0.1,0.3l-3,3.1
		c0.4,0.6,0.8,1.2,1.2,1.8c1.1,1.6,2.1,3.3,3.2,5c1.7,2.8,3.4,5.8,5.5,7.9c0.2,0.2,0.8,0.7,1.3,1.1c1.6,1.3,2.7,2.3,3.3,3.4
		c0.6,1.2,0.6,2.6,0.5,3.8l0.9-5.6L170.1,269.5z"/>
	<polygon class="st1" points="395.5,61.9 405.8,58.7 418.5,54.1 427.5,53 421.4,7.1 374,15.8 376.2,52.7 379.4,63.7 381.2,63.7 	"/>
	<polygon class="st1" points="405.9,99 425.8,99 424.9,96.3 419.4,89.8 411.1,65.2 407.4,60.3 406.4,60.6 395.8,63.8 381.3,65.7 
		371.6,65.7 374.3,67.5 384.4,86.2 390.4,103.2 390.4,106 391.3,104.9 	"/>
	<polygon class="st1" points="522.8,72.6 527.7,63 511.7,44.1 506,42.1 491.4,36.5 480.3,36.5 480.3,40.7 482.6,47 471.7,70.6 
		478,82.5 480.8,84.3 480.8,84.6 502.8,69.5 	"/>
	<polygon class="st1" points="316.8,90.4 331.1,106 338.2,107.7 343.1,105.4 357.4,70.8 323,77.2 312.5,77.2 312.5,81.1 	"/>
	<polygon class="st1" points="524.4,96.6 529.7,102.2 538.8,110.2 545.5,116.1 573.4,143.3 576.8,136.9 579.6,128.1 573.5,120.6 
		571.9,112 576.4,108.2 576.4,99.6 568.7,76.6 563,68.9 555.6,63.8 529.5,63.8 524.4,74 	"/>
	<polygon class="st1" points="353.3,46.1 365.8,57.4 368.9,63.7 377.3,63.7 374.2,52.9 371.5,6.2 346.1,13.8 342.2,15.6 339.4,41.5 
		343.1,42.3 	"/>
	<path class="st1" d="M114.3,260.3l25.2-9.3c-0.7-1.4-1.4-2.8-2-4.2c-0.4-0.8-0.7-1.7-1.1-2.5c-1.7-3.9-3.5-8-6.1-11.2
		c-2.1-2.6-7.3-7.5-9.1-8.1c-0.6,0.2-1.2,0.7-2.2,1.5c-1.6,1.3-3.6,3-6.9,3.3l-2.2,26.6L114.3,260.3z"/>
	<polygon class="st1" points="466.9,34.3 475.8,37.3 478.4,35 482.6,1.8 424.6,15.7 429.5,52.8 447.1,50.8 	"/>
	<polygon class="st1" points="447.2,52.8 418.9,56 409.4,59.5 412.9,64.2 421.2,88.8 426.6,95.3 427.9,99 428.8,99 437.3,102.5 
		446.1,107.4 449.7,102.8 454.6,93.4 461.9,85.5 468.5,85.5 472.7,88.1 476.1,88.1 478.8,86 478.8,85.4 476.4,83.9 469.9,71.4 
		466.6,70.3 	"/>
	<path class="st1" d="M28.7,398.1c0.6-0.1,1.7-1.8,2.3-3.3l0.3-0.6H53l-0.5-1.9l-2.3-3.8v-5.9l-3.6-4.6l-3-6.5l-2.6-4.9l-1.9,2.2
		l-3,5.3l-3.6,4.1l-2.9,4.8l-3.6,3.4v11.9C27.3,398.2,28.3,398.2,28.7,398.1z"/>
	<path class="st1" d="M10.1,126c-1.2,2.2-0.8,6.1-0.4,9.8c0.5,4.6,1,9.3-1.2,12.6l-0.4,0.7l-0.7,0.4c-0.1,0.1-0.2,0.1-0.3,0.2v2.6
		l13.2-2l12.9-4.2v-6.9l9.6-6.1v-6.7L24.4,125l-4.7-6.1c-0.9,0.7-2,1.4-3.1,2.2C14.2,122.5,10.8,124.8,10.1,126z"/>
	<path class="st1" d="M535.4,218.2l-9.5-7.6l-16.9-9l-7-7l-1.2-0.8l-3.8,3.5l-2.7,15.9l-3.3,7.6l-6.5,6.1v7l3.6,9.5l6.2,8.5
		l5.5,10.7l2,0.7l14.7,8.1l4.4,1.4c1.9-3.9,4-7.6,6.2-11.4c6.3-11.1,15.5-20.9,25.6-27.6l-8.4-6.7L535.4,218.2z"/>
	<polygon class="st1" points="359.8,70.3 344.7,106.9 342.9,107.7 352.9,107.7 354.4,105.1 373.5,105.1 375.2,107.7 388.4,107.7 
		388.4,103.6 382.6,86.9 372.7,68.9 368.3,65.9 361.7,70 	"/>
	<path class="st1" d="M20.7,428.2h8.1h0.8h4.8l2.4-2.5v-14.4h-3v-15.1h-1.3c-0.6,1.3-1.9,3.7-3.6,3.9c-1.4,0.2-9.5,0.1-12.5,0v24.1
		l4.3-0.2L20.7,428.2L20.7,428.2z"/>
	<polygon class="st1" points="82.2,267.9 84.9,263 84,257.8 80.4,257.8 77.3,244.3 77.3,238.5 71,238.5 62.1,241.7 58.6,245.7 
		52.9,239.9 52.9,240 56.8,245.7 59.6,253.2 59.6,260.7 74.1,265.2 	"/>
	<polygon class="st1" points="310.3,50.3 310.3,56.7 316.6,73.5 314.5,75.2 322.9,75.2 360.9,68.1 367,64.3 364.2,58.6 352.3,47.8 
		342.5,44.2 320.6,39.7 312,36.8 312,50.3 	"/>
	<polygon class="st1" points="537.5,111.7 528.3,103.6 522.4,97.4 522.4,74.6 503.3,71.6 480.8,87 480.8,92.6 490.9,112.5 
		499.2,119 504.6,123.6 540,113.9 	"/>
	<path class="st1" d="M472.1,90.1l-4.2-2.6h-5.2l-6.6,7.2l-4.8,9.3l-3.8,4.7c0.7,1,2,2.8,2.3,3.8c0.3,0.7,3.7,5.3,6.9,9.3l0.1,0.1
		l2.2,6.6l3.5,3.9l5.8-2.1h11l9.6-17.2L478.8,93v-4.5l-2.1,1.6L472.1,90.1L472.1,90.1z"/>
	<path class="st1" d="M538.9,162.1c7.1,2.8,18.1,7.1,19.1,7.4c0.8,0.2,7.4,0.2,13.4,0l7-7l3.6-7.7l-0.3-1.2l-9-3.2v-5l-28.6-27.8
		l-2.3-2.1l-35.4,9.7l10.6,13.5v26.8l11.8-4.3L538.9,162.1z"/>
	<path class="st1" d="M500.8,265.1l-8.1-3l-0.2-0.2c0,0-1.2-1.6-2.8-2.3c-0.6-0.2-1.6-0.8-2.7-1.5l-4.5,11.6l-3.4,14.2l-17.2,33.3
		l20.1,5.3l14.4,7.7l6.7,2.7c0.8-0.7,1.6-1.3,2.3-1.9c1.3-1,2.5-1.9,3.2-3.1c1.7-3,1.7-8.9,1.6-13.7c0-1.9,0-3.6,0-5.2
		c0.6-13,4.5-24.1,9.6-34.5l-4.4-1.4L500.8,265.1z"/>
	<path class="st1" d="M170.5,21.8c-0.4-0.2-0.8-0.4-1.2-0.5c-1.5-0.7-2.7-1.2-3.8-1c-0.1,0-0.1,0-0.2,0.1l2.4,0.9L170.5,21.8z"/>
	<path class="st1" d="M446.8,198.9c1.2,0.8,4,2.5,6.2,3.8l8.9-2.5l3.4-1.9l14.4-4.9h18.2l1.2-1.1l-6.9-4.8l-17.6-13.7l-11-6
		l-6.7-6.2l-1,5.3L446.8,198.9z"/>
	<path class="st1" d="M176.4,356.1l-3-8.7l-1.1-3.9l-5.6-6.1l-2.2-6.9c-0.5,0.1-1,0.3-1.4,0.4l-14.6,17l-1.7,2.7l7,10.2l4.1,6.8
		l1.1,2.2v-1.4l11-3.3l7.7-4.1l-1.2-3L176.4,356.1L176.4,356.1z"/>
	<path class="st1" d="M344.9,281.7l13.7,2.7l1.5-9.1c-1.2-0.5-2.4-1.7-2.4-4.5c0-2.6-2.6-16.9-4.3-25.5l-0.2,0.2h-4.1l-4.1,4.6
		l-4.8-5.2l-4-3.2l-9.3-7.2v-4.3l2.2-3.7v-1.8l-2.7,2.5h-10l-9.3,7.8h-20.8l-3.9,5.6l4.3,2.8l8.8,4.3l4.8,2.2l14,7.8l4.3,8.1v4.3
		l12,6L344.9,281.7z"/>
	<path class="st1" d="M370.4,219.4l2.5,2.9l-6.9,11.3l29.9,15.9h4.2l4.2-1.7l6.7-9.5v-3.7l-7.2-3.6c-0.5-0.3-4-2.4-5.2-4
		c-1.4-1.9,0.9-4.2,2-5.1V215l-6-6.5l-10.6-2.2l-1.6-1.8l-12.1,12.2L370.4,219.4L370.4,219.4z"/>
	<path class="st1" d="M329,230.8v2.7l8.5,6.6l4.2,3.4l3.3,3.6l3.3-3.6h4.1l8.4-9.1l3.2-1.3l6.5-10.7l-2-2.3v-4.4l12.6-12.7l-1.6-1.1
		l-0.1-0.2c-0.3-0.5-2.7-5.3-3-6.9c-0.4-0.9-5.4-6-10.1-10.4l-0.2-0.2l-2.1-7.1h-1.7v5.2h-8l-1.7,1.8l-0.3,2.1l3,4.2l-11.1,7.4h-6.8
		l-4-6l-8.7,10.4h-2.9l-0.3,3.2l4.3,8l5.6,9.1l-0.3,0.3v4.3L329,230.8z"/>
	<path class="st1" d="M200.2,358.5V354l-1.9-5.2l-5.4-5l-8.1-8.1v-12c-0.4,0.2-0.7,0.4-0.9,0.5c-1.1,1-6.2,1.5-9.4,1.8
		c-1.8,2.6-3.2,3.6-4.3,3.2c-0.4,0-2,0.3-3.9,0.8l2.1,6.4l5.7,6.1l1.2,4.3l3.1,9v1.8l0.9,2.3l3.7-2.7h9.5l1.8,4.7l4.3-1.3
		L200.2,358.5z"/>
	<path class="st1" d="M405.6,249.4l-5.1,2h-5.1L364.5,235l-2.7,1.1l-6.8,7.4c0.7,3.5,4.6,23.8,4.6,27.3c0,2.7,1.5,2.7,1.6,2.7h1.2
		l-1.6,9.5l11.1,10.9l4.7-13.6l6-6.7h5.3l8.6-6.1l4-3.8l16.9-16.6l-4.5-8.9v0.8L405.6,249.4z"/>
	<path class="st1" d="M328.4,299l11.5,5.7l7.8,3.3l5.9,3.5l3.8,2.3c3.1-0.6,7.6-1.7,8.5-2.3c0.8-0.5,1.6-0.7,2.2-0.6l6.2-7.9v-4.8
		l-1.4-1l-0.1,0.2l-12.3-12l-0.2,1.3l-16-3.2l-14.4-5.6l-11.2-5.6v12.1H333l-9.6,8.2l-2.5,1.4l3.3,2.8L328.4,299z"/>
	<path class="st1" d="M388.9,315.8l-10-9.8l-3.2-1.4l-7.7,9.8l-0.5-1.5c-0.1,0-0.2,0.1-0.4,0.2c-1.6,1.1-8.3,2.4-9.6,2.6l-0.4,0.1
		l-4.4-2.7l-5.8-3.5l-7.7-3.2l-11.5-5.8l-4.6-2.2l-4-3.4l-12.6,7.1l-11.4,16.3l-2.9,4.5l33.5,11l11.7,4.9l16.1,11.1l9.4-6.8l11.8-9
		l8.1-6.4l2.7,6.7l2.2,3.5h6.7l7-20.4l1.7-3.8l-3.4,2.1L388.9,315.8L388.9,315.8z"/>
	<path class="st1" d="M97.8,392.4l2,6.4l2.3,6.3l4.4,10.8l9-4.8l10.2-2.7l4.9,2.3l1.4-2.3v-5.1l-0.2-2.2l-2.6,2.3l-0.7-0.8
		c-2.3-2.7-3-3.5-2.7-4.1c0-0.7,0-2.8,0-4.7v-0.3l1.8-3.2h-16.9h-1H97.8L97.8,392.4z"/>
	<polygon class="st1" points="397.8,269 388.6,275.5 383.6,275.5 378.5,281.3 373.6,295.3 376.4,297.3 376.4,302.8 380,304.4 
		389.7,313.8 399.1,313.8 404.8,310.3 414.5,304.6 431.1,254.1 430.4,253.6 418.7,249.4 418.4,249 402,265.1 	"/>
	<path class="st1" d="M152.1,362l-7.1-10.2h-12l-3,2.7l-8.7,10.9l-1.9,7l-5.3,5.5l-3.5,2.3v8.4h20.3l-3.1,5.7c0.1,2.6,0.1,3.9,0,4.6
		c0.3,0.4,0.9,1.1,1.5,1.9l4.1-3.6l0.1,1l5.3-0.1l5-6.2l3.1-4.5c2.1-2.2,4.4-5,4.7-5.7c0-0.5,0.4-1.8,7.1-7.7l-2.6-5.4L152.1,362z"
		/>
	<path class="st1" d="M56.1,200.1l-5.1,3.8l6.1,29.1l-4.1,1.7v2.4l5.6,5.7L61,240l9.1-3.3l2.7-6.9l1.5-10.4l4.8-7.3
		c-0.4-0.3-0.8-0.6-1.2-1c-2.4-2.4-2.8-5-2.8-7.3l-8.1,0.6L56.1,200.1z"/>
	<path class="st1" d="M221.6,365.9l-3.4-5.1l-5.3,1.5l-1.7,3.5l3.8,3.6l-4,5.2v24.1l3.7,3v12.8l12.1,1.7v-9.8l11-5.1l10.9-5.3h7.2
		l7.3,2.1l16.6-17c-2.3-2-4.9-3.5-8.4-5c-8.3-3.6-17-8-24.3-15.5c-0.4-0.5-0.9-0.9-1.4-1.3c-0.5-0.5-1-1-1.6-1.5l-5.1,8L221.6,365.9
		L221.6,365.9z"/>
	<polygon class="st1" points="428,377.9 428,373 425,369.6 425.9,363.6 420.9,360.9 411.8,355.6 401,347.3 403.9,342.9 396.6,337.9 
		395.9,339.9 386.6,339.9 383.7,335.2 382,330.9 376,335.6 364.1,344.7 355.5,350.9 373,358.9 380.1,364.7 381.4,363.3 381.4,360.8 
		399.3,361.6 399.3,384.5 424.3,384.5 	"/>
	<path class="st1" d="M175.8,88.9l-7.9-7.3l-3.8-4.7l-5.4-4.2l-4.9-6.5l-5.8-1.9v2.2l-7.3,3.3l-7.9,4.8l-4.8,3.7l-9.8,3.7l-11.7,3.9
		c0.9,0.5,2,1.1,2.9,1.6l0.5,0.3v5.8l3.1,2.7l7.4,8.4c0.5,0.4,3.8,3.1,6.3,5.3v-2.1h23l6.4-6l3.1-3.2h6.2l3.5,3.8l9.3-9.6
		L175.8,88.9z"/>
	<path class="st1" d="M486.2,244.2l-3.8-10V226l6.8-6.5l3.1-7.1l2.7-16.2l0.7-0.6H480l-14,4.7l-3.5,1.9l-7.2,2
		c0.2,0.1,0.3,0.2,0.4,0.3c2.1,1.2,1.3,7.6,0.5,11.5l12.3,24.2l8.3,4.7l5.4,7.8c1.9,1.3,6.8,4.4,8.2,5c1.7,0.7,3,2.1,3.5,2.7l3,1.1
		l-4.5-8.6L486.2,244.2z"/>
	<path class="st1" d="M219.2,339l-7.4,5.7l-6.4,10.3l-3,3.9l2.9,5.3l4.1,0.7l2.1-4.3l7.6-2.2l3.7,5.4H238l4.9-7.6
		c-0.4-0.6-0.8-1.2-1.1-1.9c-1-2.2-1.5-4.3-1.9-6.2c-0.5-2.3-0.9-4.3-2.2-5.9c-0.6-0.8-1.3-1.7-1.9-2.5c-2.1-2.8-4.2-5.7-6.8-7.5
		c-0.8-0.6-1.7-1-2.7-1.3l-3.2,2.8L219.2,339z"/>
	<polygon class="st1" points="271.9,258.9 271,261.1 269,263.8 266.4,275 264.8,278.4 270.2,279.9 273.3,285 276.6,290.5 284,297.2 
		301.8,297.2 304.8,300.9 304.9,300.8 322.2,291.1 327.5,286.6 316.6,286.6 316.6,266.4 312.8,259.2 299.4,251.7 294.6,249.5 
		285.6,245.1 281.3,242.3 274.1,254.7 	"/>
	<polygon class="st1" points="19.2,186.9 25.2,190.2 31.4,190.2 37.9,201 44.5,198.5 47.1,196.1 50.9,190.2 50.9,176.2 19.2,180.7 	
		"/>
	<polygon class="st1" points="179.3,379.2 182.3,376.6 182.3,369 185.9,366.7 180,366 178.4,362.8 170.6,367 160.9,369.9 
		160.9,373.9 166.1,378.9 173.4,385 173.9,386.8 179.3,384.8 	"/>
	<polygon class="st1" points="188.7,365 192.4,362.7 191.1,359.1 183.6,359.1 180.1,361.8 181.3,364.2 	"/>
	<polygon class="st1" points="240.2,287.2 246.5,287.2 252,290.2 255.8,290.2 259.4,286.6 260.8,282 264.5,274.2 267.1,262.9 
		269.4,260 269.5,259.5 262.9,259.5 248.5,248.9 239.9,248.9 234.4,254.1 231.2,259 228.5,264.1 224.9,266.8 223.4,272.8 
		232.7,272.8 	"/>
	<polygon class="st1" points="208.9,399.7 208.9,374 212.3,369.6 209.5,367 204,366 201.1,360.7 199.8,362.3 194.1,364 184.3,370.1 
		184.3,377.5 181.3,380.1 181.3,386.2 174.4,388.8 175.2,392 177.6,394.3 181,396.3 188.2,403.4 190.6,409.4 190.6,420.7 
		192.9,420.7 197,424.3 199.2,426.8 210.7,414 212.6,414.2 212.6,402.7 	"/>
	<path class="st1" d="M422.6,175.9c0.3,0.7,2.8,2.8,5.1,4.5l5.7,2.5l6.2,9.8l1.3,5.7h4l9-31.7l1.2-6.4l-4.3-4l-20.7-10.4h-15.9
		L413,146v6.2C417.2,162.2,422.3,174.1,422.6,175.9z"/>
	<path class="st1" d="M275.3,220.2l-4.8-7.7l-2.6-3.5l-7.6,6.9l-8.5-7.4h-5c-2.6,4.7-8.7,15.8-9.2,17.9c-0.4,1.5-1.9,4-3.3,6.4
		c-1,1.7-2.5,4.1-2.5,4.7c0,1.4-4.2,6.5-8,10.9l8.2,5.9l1.1-1.6l6.2-5.9h10l14.4,10.6h6.8l1.9-3.8l7.8-13.3l2.4-3.4l-2.1-8
		L275.3,220.2z"/>
	<path class="st1" d="M92.1,235l-12.8,3.3v5.9l2.7,11.6h3.7l1.3,7.6l-0.2,0.4l2.9-1.5l18.3-6.2l2.1-26.4c-0.5-0.1-1-0.2-1.6-0.4
		l-1.9,4.1L92.1,235z"/>
	<path class="st1" d="M315.8,152.9c1.1,1.5,0.6,6.5,0.3,8.9l1.6,0.6l4.2,25.2v12.7h1.9l9.8-11.7l4.9,7.3h5.1l8.9-5.9l-2.2-3.2
		l0.5-3.5l2.7-3h6.8v-6.9l-9.4-12.3l-5.8-8.6l-26.7,2.5v-11.8l-5.8-5l-0.6,11C312.9,149.9,314.9,151.7,315.8,152.9z"/>
	<path class="st1" d="M255,154.7l2.5,9.3l12.4,1.9l44.6-7.7c0.1-2.1,0.1-3.8-0.2-4.1c-1-1.4-3.9-3.7-3.9-3.7l-0.4-0.3l0.7-13.5
		l-13-11.3l-37.1,1.8l-5.4,9.7v17.9H255z"/>
	<polygon class="st1" points="269,197.7 269,207.2 272.2,211.4 277,219.2 282.3,228.4 284,234.8 285.3,233 306.5,233 315.8,225.2 
		325.7,225.2 328.9,222.2 324.2,214.4 319.6,205.9 320,201.2 320,194.2 	"/>
	<path class="st1" d="M120.9,192l-11.7-27.6l-10,5l-0.5,0.1l-2,0.3l0.2,12.1h-2.7c-0.2,0.1-0.4,0.4-0.5,0.5
		c-0.4,0.4-0.9,0.9-1.5,1.3c-1,0.9-1.9,1.5-2.8,2.1c-1.2,0.8-1.9,1.2-2.4,2l-0.1,0.1c-0.3,0.4-0.5,1.1-0.8,1.8
		c-0.5,1.2-1.1,2.8-2.2,4.2c-0.4,0.6-1,1.2-1.5,1.8c-0.7,0.7-1.4,1.6-1.5,2.1l-0.1,0.2c-0.1,0.4,0,1.8,0,2.6
		c0.1,0.7,0.1,1.3,0.1,1.9c0,2.4,0,3.2,1.1,4.3c0.6,0.6,2.6,1.6,4.1,2.4c1.9,1,3.7,1.8,5.7,2.2h0.1c4.6,1.1,7.9,3.9,11,6.5l0.2,0.2
		c2.1,2.1,5.1,5.1,7.9,5.5c1.5-0.1,2.4-0.8,3.8-2s3.1-2.6,5.6-2.9c0.3,0,0.6,0,0.8,0l6.5-11.5L120.9,192z"/>
	<polygon class="st1" points="129.7,206.1 137.5,201.5 142.9,194.4 150.7,189.2 158.6,185.4 158.6,175.5 153.9,163.7 148.8,157.8 
		133.1,157.8 131.5,157 126.7,159.7 118.7,159.7 111,163.6 122.7,191.2 	"/>
	<polygon class="st1" points="23.1,250.9 25.9,256.5 25.9,266.4 19.6,277.8 19.4,278.5 31.8,282 40.8,283.7 44.5,278.7 53.8,265.5 
		57.6,261.1 57.6,253.6 55,246.5 50.9,240.6 50.9,238.5 32.1,238.5 	"/>
	<path class="st1" d="M182.6,322.7c0.9-0.8,2.9-1.5,4.9-2.1c0.8-0.3,1.5-0.5,2.1-0.7c1.3-0.5,2.8-2.1,3.3-2.7l0.3-0.4l6.8,0.6
		l3.8-3.2c-1.8-1.3-3.6-2.7-5.1-4.7c-1.3-1.7-2.1-3.3-2.8-4.7c-0.9-1.8-1.5-3-3-4c-1.4-1-3.3-1.6-5.3-2.4c-1.9-0.7-3.9-1.4-5.8-2.5
		c-0.9-0.5-1.7-1-2.5-1.5c-2.5-1.5-4.9-2.9-7.6-4c-0.5-0.2-1.7-0.5-2.9-0.8c-2.5-0.6-4.4-1.2-5.8-1.7l18.3,35.3
		C181.9,323,182.4,322.8,182.6,322.7z"/>
	<path class="st1" d="M444.7,315.7l-0.2-0.2c-2-2.2-4.5-4.6-5.1-4.9c-1.1-0.4-5.6-4.3-7.6-6.2l-14.1-3.3l-1.6,4.8l-10,6l-2.9,6.4
		l-6,17.7l9.5,6.4l-3,4.5l9.2,7.2l9,5.1l11,6.1l12.8,10.4l2.7,5.1l5.7-7c3.5-6.7,7.2-14.3,7.3-15.7c-0.7-2.5,3.8-13.3,5.9-14.9
		c1.6-1.2,11.3-12.5,15.8-17.8l-1.9-1l-20.9-5.5H454L444.7,315.7z"/>
	<path class="st1" d="M155.7,162.6l4.9,12.6v12.2c0.4,1,2.3,5.4,2.8,7c0.3,1.1-0.1,2-0.4,2.7c-0.4,1-0.4,1.1,0.1,1.5
		c2,1.5,4.2,8.8,4.9,11l5.9,4.5l6.7,2.7l1.6,1.5l2.8-1.5l3.1-3.8l-2.9-5.3l3-8.6c-0.4-1.5-1.7-6.7,0.2-9.4c1.3-1.9,3.1-4.5,3.9-5.7
		l-9.3-7.7l-1.5-29.2l-3-12.3l-9.2,1.3L133.6,156h16L155.7,162.6z"/>
	<path class="st1" d="M232.9,156.9l6.3,5.3l16.2,1.7l-2.4-9v-18.6l5.1-9.1l-40.1,2l-2.1,0.3c3.2,5.3,3.7,6.8,3.7,7.4
		C220.2,138.3,226.8,148.2,232.9,156.9z"/>
	<path class="st1" d="M185,175.2l9.2,7.6l6,2.5c3.5,2.4,7.8,5,9.1,5.4c0.8-0.4,2.9,0.3,12.7,7.4l4.8-6.7l1.5-24.3l2.8-9.2
		c-12.7-18.2-13.4-20.4-13.4-20.9c-0.2-0.8-1.9-3.9-3.9-7.1l-33.3,4.7l3.1,12.4L185,175.2z"/>
	<path class="st1" d="M402.2,184.5L384,202.9l1.2,1.5l10.5,2.2l7,7.6v8.7l-0.4,0.3c-1.3,1-2.3,2.4-2,2.7c0.8,1.1,3.5,2.8,4.5,3.4
		l6.3,3.1v-2.7l19.1-20.2l1.5-2.7l10.5-6.4h-2.9l-1.6-6.9l-5.7-9l-5.5-2.4c-3.2-2.3-4.7-3.8-5.4-4.7l-7.5,3.7L402.2,184.5z"/>
	<path class="st1" d="M431.6,210.8L413,230.5v3.2l7.1,14.1l11.3,4.1l10.5,7.6h28.4l9.8-6.3l-4.7-6.7l-8.4-4.8l-12.9-25.3l0.1-0.3
		c0.9-4.6,1.1-9.1,0.4-9.8c-1.6-0.9-7.3-4.5-9.1-5.6l-12.6,7.7L431.6,210.8z"/>
	<path class="st1" d="M441.3,261.5l-8.5-6.1l-14.4,43.8l14.4,3.4l0.2,0.2c2.9,2.7,6.4,5.7,7.1,6c1.2,0.4,4.3,3.7,5.8,5.3l8.5,2.8
		h5.5l17.4-33.8l3.3-14.1l4.6-12c-1.5-0.9-2.9-1.9-3.7-2.4l-10.6,6.8L441.3,261.5L441.3,261.5z"/>
	<path class="st1" d="M194.1,318.8c-0.7,0.7-2.2,2.2-3.7,2.8c-0.6,0.2-1.4,0.5-2.2,0.8c-0.4,0.1-0.8,0.3-1.3,0.4v11.9l7.5,7.5
		l5.7,5.3l2.2,6v2.3l1.6-2.1l6.5-10.5l7.6-5.8l3.6-5.2l2.3-2c0,0,0,0-0.1,0c-2.5-0.6-5.3-1.4-7.7-3.5c-1.8-1.6-3.1-3.4-4.4-5.1
		c-1.1-1.5-2.1-2.8-3.3-3.9c-0.9-0.8-1.9-1.6-2.9-2.3l-4.8,4.1L194.1,318.8z"/>
	<path class="st1" d="M74.7,230.5l-2.4,6h5.9l13.7-3.5l13.4-1.6l1.4-3c-3.1-1.5-5.6-4-7.5-5.9c-2.7-2.3-5.3-4.4-8.5-5.2
		c-2.8-0.6-5-1.7-7.1-2.7c-1-0.5-2-1-2.9-1.5l-4.6,6.9L74.7,230.5z"/>
	<path class="st1" d="M196.5,231.6l7,7l9.5,4.8l8.9,4c3.6-4.2,7.5-9,7.8-10c0-0.8,0.8-2.3,2.8-5.6c1.3-2.2,2.8-4.7,3.1-5.9
		c0.7-2.5,7.6-15,9.4-18.2c-0.6-0.6-1.3-1.2-2-1.4c-1.5-0.4-20.3-5.7-21.1-5.9h-0.2l-0.1-0.1c-4.8-3.4-10.3-7.1-11.7-7.6
		c-0.8,0.3-2.8-0.3-10.8-5.6L194,185c-0.8,1.2-2.6,3.9-4,5.8c-1.3,1.8-0.3,6.5,0.1,8l0.1,0.3l-2.9,8.3l3.1,5.8l-4.3,5.2l-2.6,1.3
		l1.5,1.5L196.5,231.6z"/>
	<path class="st1" d="M246.7,206.5h5.8l7.8,6.7l6.8-6.1v-10l-4.6-6.5l-6.5-24.7l-17.5-1.8l-5.8-4.8l-2.5,8.1l-1.5,24.5l-4.9,6.9
		c4.5,1.3,18.4,5.2,19.7,5.5C244.8,204.7,246.1,205.9,246.7,206.5z"/>
	<path class="st1" d="M362.3,172.7v2.3h3.1l2.3,8c3.8,3.6,10.1,9.7,10.5,11.2c0.3,1.1,2,4.7,2.8,6.2l1.5,1l18.7-18.8l12-3.6l7.3-3.7
		c-1-2.8-6.1-15.1-9.4-22.8l-0.1-0.2v-6.4l-36.1,3.6l-27.6,2.9l5.1,7.6L362.3,172.7z"/>
	<path class="st1" d="M320,187.6l-4-23.8l-2.1-0.7l0.1-0.8c0.1-0.7,0.2-1.3,0.3-2l-44.4,7.7l-11.9-1.8l6.2,23.6l4.3,6l51.4-3.6v-4.6
		H320z"/>
	<path class="st1" d="M212.1,245.2l-9.9-5.1l-7-7l-6.8-6.2c-0.7,3.4-1.4,6.7-1.4,7.2c0,1-1.3,2.6-2.6,3.9v2.5l3.8,3.2l1.9,3.4
		l4.4,6.6l3.4,4.9l-6.2,8.1l-1.4,5.6l3.4,8.7l4.4-3.9h20.1l3.1-3.7l1.9-7.7l3.8-2.8l2.5-4.8l1.3-1.9l-9.1-6.5L212.1,245.2z"/>
	<path class="st1" d="M116.9,262.7v3l5.8,6.5l2.9,7.7l17.9,7.1h5.3l3.3-3.2l7-0.6c-0.1-0.9,0-1.8,0-2.6c0-0.4,0.1-1.1,0.1-1.4
		c-0.4-0.4-1.2-1-1.6-1.4c-0.8-0.6-1.4-1.1-1.9-1.6c-2.5-2.6-4.4-5.8-6.2-8.9c-1-1.7-1.9-3.2-2.9-4.7c-2.3-3.3-4.3-6.6-6.1-9.8
		l-24.5,9.1L116.9,262.7z"/>
	<path class="st1" d="M253.1,107l-9.7-13.8l-4.5-15.7c-2.5,1.1-9,3.8-10.4,4.4c-0.7,0.3-1.5,0.4-2.1,0.4c-0.3,0-0.6,0-0.9-0.1v10.1
		l3.3,2.6l-1.9,21.5l-1.5,2.1v4.1l34-1.7l-0.8-4.6L253.1,107z"/>
	<polygon class="st1" points="99.3,290.5 108.2,283.5 112.8,283.5 115.3,287.1 119.1,287.1 123.7,280.7 121,273.3 114.9,266.5 
		114.9,263.6 109.3,258.5 108.7,257.9 90.4,264.1 85,266.9 83.5,269.5 82.3,272.7 86.1,278.6 90.1,285 92.6,287.4 96,290.5 	"/>
	<polygon class="st1" points="224.9,115.8 226.7,95.9 223.4,93.3 223.4,82 209.8,82 179.8,93.7 170.1,103.7 173.8,107.8 
		188.9,109.4 198.7,117.9 206.1,121.6 206.1,124.7 217.6,123.1 223.4,122.8 223.4,118 	"/>
	<polygon class="st1" points="590.4,21.8 587.7,18.3 582.5,19.7 579.5,22.3 572.6,23.7 566,41.9 558,55 557,62.4 564,67.2 
		600.2,63.8 	"/>
	<polygon class="st1" points="333.2,112.5 335.9,109.7 333.8,109.7 335.3,109 330,107.8 315,91.4 310.5,81.5 310.5,77.2 307.9,77.2 
		296.4,83.8 296.4,88.3 298.7,103.5 296,110.8 294.7,119.4 299.7,119.1 316.9,134.1 322.2,126.2 	"/>
	<path class="st1" d="M70.2,358.9L64,354l-4.6,6.7c-0.8,1.2-2.2,3.3-2.4,4.3c-0.4,1.6-4.7,5.8-6.2,7.3l-2.1,5l3.5,4.4v6l2.2,3.7
		l1.7,6.9l5,2.6l16.9-9.5h3.5L77.4,362L70.2,358.9z"/>
	<polygon class="st1" points="296.6,103.3 295.2,93.9 248.1,96.3 254.8,105.9 260.5,115.8 261.4,121 292.7,119.5 294.1,110.2 	"/>
	<polygon class="st1" points="43.1,286.2 42.4,286.1 46.1,307.9 62.8,307.9 62.8,304 71.4,297 72,296.6 65.2,292.8 	"/>
	<path class="st1" d="M675.6,107.7c0.3-1.2,0.4-2.8,0.1-3.3c-0.9-1.4-0.3-4.3-0.1-5.2V99l0.7-1.2l-5.3,0.1l-4.5-3.8l-8.2-10h-32.2
		l-3.8,2.6l2.6,4.1l0.4,25.6l6.8,8.6l9,10.1l4,7.8c2-2.4,3.8-4.3,5.5-5.8c1.3-1.2,2.7-2,3.9-2.9c1.4-0.9,2.7-1.7,3.8-2.9
		c0.7-0.7,1.2-1.4,1.9-2.1c1.4-1.7,2.9-3.4,5.1-5c3.6-2.5,7-5.4,10.3-8.2c0.9-0.8,1.8-1.5,2.7-2.3l-2.9-5.7L675.6,107.7z"/>
	<path class="st1" d="M142.6,138c-0.2-0.6-1.7-2.9-2.8-4.7c-1.5-2.2-3-4.5-3.7-6.1c-1.5-3.3-4.8-7.8-5.6-8.4
		c-0.7-0.5-1.1-1.4-1.5-2.4s-0.8-2.2-1.7-3.2l-4.9,2.3l-3.8,5.2l-2.8,6.7l-3.3,2.9h-4.4v3.3l1.7,16l-3.8,2.3v7.4l11.1-5.6h7.8
		l17.4-9.7C142.6,141.7,142.6,138.8,142.6,138z"/>
	<path class="st1" d="M172.3,114.8v-5.7l-8-8.6h-4.4l-2.5,2.7l-7,6.6h-21.8v1.9c1.3,1.4,1.9,2.9,2.4,4.1c0.2,0.6,0.5,1.3,0.7,1.4
		c1.4,0.9,4.8,5.9,6.3,9.2c0.7,1.5,2.2,3.8,3.6,5.9c2.4,3.6,3.2,5,3.1,5.8c0,0.5,0,2.7,0,4.8l22.8-12.7l1.5-0.2v-15.1L172.3,114.8
		L172.3,114.8z"/>
	<path class="st1" d="M103.7,352.7l-5.6,2.6c-3.2,1.8-8.1,4.7-8.7,5.6c-1.1,1.3-6.3,1.6-9.9,1.6l4.1,29.1h4.2l2.2-3h18.7v-9.5
		l4.3-2.9l4.7-4.9l1.6-6.1l-12-11L103.7,352.7z"/>
	<path class="st1" d="M49.2,371.1c2.6-2.5,5.6-5.7,5.8-6.5c0.4-1.7,2.5-4.7,2.8-5l4.9-7.2l-3.7-8.7l-9.6-4l-6.2-5.9l-2.3-1.2
		l-5.1,6.1l-4.2,12.7l-5,4.5l5.8,3.5l4.2,1.3l4.5,2.9l0.4-0.4l4,7.5l2,4.5l1.6-3.8L49.2,371.1z"/>
	<polygon class="st1" points="620.3,87.1 617.2,84.1 611.4,82.2 608.4,77 601,65.7 565.6,69 570.5,75.7 578.4,99.3 578.4,109.2 
		574.1,112.8 575.4,119.8 581,126.6 596.1,119.6 623.4,116 623,91.5 	"/>
	<polygon class="st1" points="197.5,119.5 188.1,111.3 174.3,109.8 174.3,116.8 171,116.8 170.9,129.6 204.1,125 204.1,122.8 	"/>
	<polygon class="st1" points="437.6,114.5 444.6,108.9 436.3,104.3 428.4,101 406.3,101 392.5,106.6 390.4,109.1 390.4,110 
		397.8,108.1 402.7,108.5 407,118.3 413,129.9 413,140 414.1,139.9 431.6,139.9 437.6,130.3 	"/>
	<path class="st1" d="M553.6,200.7l3.6-3.6l14.1-4.8l10.4-10.4l2.2-8.9l5.9-5h-7.1l-3.4-3.5l-7,7h-0.4c-1.3,0-5.9,0.2-9.6,0.2
		c-2.3,0-4.2,0-4.8-0.2c-1.4-0.4-16.8-6.5-19.2-7.4l-9.3-0.8l-12.6,4.6l-6.3,4.7l-2.6,9.5l-3.3,6.9l1.7,1.2l6.6,6.6l16.6,8.8
		l10.3,8.3l8.5,8.5l2.2-12.9L553.6,200.7z"/>
	<polygon class="st1" points="355.6,107.1 354.1,109.7 338.8,109.7 334.7,113.8 323.8,127.4 318.4,135.4 324.3,140.5 324.3,148.5 
		368,144.4 363.4,107.1 	"/>
	<path class="st1" d="M607.3,178.6l-6.3-6.9h-6.4l-2.3-3.3l-6.7,5.6l-2.2,8.8l-11.1,11.1l-14.1,4.8l-3,3l-3.2,8.2l-2.3,13.7l8.2,6.6
		c2.8-1.5,5.6-2.8,8.5-3.8c3.7-1.3,7.4-2.4,11-3.6c3.6-1.1,7.2-2.2,10.7-3.5c3.8-1.3,7.6-1.7,11.3-2.1c3.5-0.4,6.9-0.7,9.8-1.8
		c4.1-1.6,5.7-6.1,6.9-11.6l-2.5-10.5L607.3,178.6z"/>
	<polygon class="st1" points="629.3,54.2 631.7,63.1 618.7,79.8 618.7,82.8 621.2,85.2 625.6,82.2 659.3,82.2 668,92.8 671.8,96 
		677,95.9 671.3,63.8 671.1,63.8 669.3,66.1 660.8,66.1 632.7,51.6 629.3,51.6 	"/>
	<path class="st1" d="M679.9,96c1.8,0,4.9-0.1,7-1.4c3.5-2.2,10.7-6,14.9-7.1c3.6-1,11.2-7,12.3-7.9l4.2-6.7l-3.6-4.9l-6.3,5.1h-9.1
		l-16-7.7l-2.6-7.2V42.6l4.5-2.5l-1.6-0.8l-8.4-3l-9.3-5.5L655.8,25l-6.8,4.2l-5.2,7l-4.9,3.1v5.1l-5.2,1.1V50l27.4,14h7.1l1.9-2.2
		h2.8l6,34h1L679.9,96z"/>
	<path class="st1" d="M620.1,161h-6.7l-3.2,3.4l-6.4,3.8l-1.1,2.4l6.4,7.2l6.7,15.2l1.6,6.8c0.6-2.2,1.2-4.4,1.8-6.6
		c0.9-3.1,1.8-6.4,2.5-9.5c0.3-1.2,0.5-2.4,0.7-3.8c0.5-3.2,1.1-6.5,2.6-9.5c0.7-1.4,1.5-2.6,2.5-3.7l-7.4-2.8L620.1,161L620.1,161z
		"/>
	<polygon class="st1" points="508.4,171.4 515,166.5 515,139.4 504.9,126.5 497.9,120.6 490.4,114.7 480.5,132.3 468.8,132.3 
		463.2,134.4 459.6,149.9 458.4,155 467.2,163.1 478.1,169.1 495.8,182.9 502.7,187.7 505.8,181.3 	"/>
	<polygon class="st1" points="607.2,41 603.9,41 602,44.2 597.7,44.2 602.4,64.3 610.1,76 612.8,80.5 616.7,81.8 616.7,79.1 
		629.5,62.6 627.3,54.3 627.3,49.6 631.9,49.6 631.9,43.9 637.1,42.8 637.1,39.2 627.8,29.7 614.7,44.4 	"/>
	<polygon class="st1" points="405.2,119.2 401.3,110.4 398,110.1 388.4,112.6 388.4,109.7 374.1,109.7 372.4,107.1 365.4,107.1 
		370,144.3 374.3,143.9 411,140.2 411,130.4 	"/>
	<path class="st1" d="M639.5,136.3l-8.8-9.9l-6.7-8.5l-27.4,3.6l-15,7.1l-2.9,9.1l-4,7.5v3.7l8.7,3.1l0.7,3l-3.7,7.9l3.1,3.1h9.6
		l2.6,3.7h5.1l1.3-3l6.8-4l3.5-3.7h9.6v3.4l6.8,2.6c0.5-0.5,0.9-0.9,1.4-1.4c1.1-1.1,2.1-2.1,3-3.3c1-1.3,1.8-2.8,2.7-4.3
		c0.8-1.4,1.6-2.8,2.5-4.1c1.9-2.7,3.7-5.1,5.4-7.2l0,0L639.5,136.3z"/>
	<polygon class="st1" points="34,337.7 39.1,331.6 34.4,329.1 31.1,327.8 28.3,331.9 23.4,339.4 18.7,344.9 17.1,344.9 19.1,348.7 
		24.9,354.5 29.8,350.2 	"/>
	<polygon class="st1" points="44.5,332.3 50.5,338 59.3,341.7 73.9,316.2 70.2,313.3 64.6,312 63.2,309.9 45.7,309.9 39.4,315.9 
		34.6,322.5 32.2,326.1 35.3,327.3 	"/>
	<path class="st1" d="M461.2,133.9l-3.9-4.3l-2.2-6.7c-2.1-2.7-6.7-8.7-7.1-9.8c-0.2-0.5-1.1-1.8-1.9-3l-6.5,5.3v15.4l-6.3,9.9
		l20.9,10.5l2.4,2.2l1-4L461.2,133.9z"/>
	<path class="st1" d="M64.6,352l6.7,5.3l7.2,3.2c4,0,8.6-0.3,9.3-0.9c1.1-1.4,8-5.3,9.3-6l4-1.8l-0.5-0.2l-2.4-8.1l-5.1-7.6
		l-2.2-3.8l-13.5-12.8l-2.1-1.6l-14.7,25.6L64.6,352z"/>
	<path class="st1" d="M98.1,317.4c1.5,0.3,6.2,0.1,8.9-0.1h0.2l21.1,6.8V321l3.3-0.7l-2.9-7.2l-0.4-1.9c-0.4-2,1.9-7.5,2.7-9.2
		l0.1-0.2l8-11.6l2.4-2l-16.2-6.4l-5,7.1h-6l-2.6-3.6h-2.8l-8.9,7h-3l1.7,4.9l3.7,7.9l-3.9,1.7C97.8,311.9,97.5,316.5,98.1,317.4z"
		/>
	<polygon class="st1" points="600.9,42.2 602.7,39 607.6,39 614.2,42 626.4,28.2 620.5,22.3 616.9,21.2 607.7,13.4 602.2,5.2 
		602.2,4.8 601.5,5.5 592.4,21.5 597.3,42.2 	"/>
	<path class="st1" d="M59,66.9L25,54l-6.1,19.6l6.8,11.7l4.3,9.3l4.5,7.7c2.2-0.5,4.3-0.7,6.4-0.9c2.7-0.2,5.3-0.5,7.7-1.3
		c4.1-1.4,6.7-3.4,10.7-6.4l0.4-0.3c2.5-1.8,3.4-3.5,4.6-5.6c0.9-1.6,1.9-3.4,3.6-5.2l-8.7-15.9L59,66.9z"/>
	<path class="st1" d="M155,64.5l5.2,6.9l4.4,3.4l4.1-4.8c0.4-0.8,2.6-5.2,3.7-7c0.8-1.3,2.2-5.4,3-7.6l-3-1.8l-2.7-10.1l-1.7-4.4
		L156,33l-4.8-3.3c-4.3,3.7-7.6,7.9-7,11.3l0.6,3.2l-1.8,0.2l4.7,17.6L155,64.5z"/>
	<path class="st1" d="M102.7,83.3c0.2,0.2,0.8,0.7,1.5,1.2l13.3-4.4l9.6-3.6l4.6-3.5l8.1-4.9l6.2-2.8v-2.2l-4.9-18.3
		c-5.8,0.4-11.3-2.1-14.4-6.5c-0.6-0.8-1-1.7-1.4-2.6c-0.5,0.8-1.1,1.6-1.8,2.3c-2.6,2.9-6.1,4.9-9.4,6.7c-3.7,2.1-7.1,4-9,7
		c-0.9,2.3-2.1,15.6-1.6,17.8c-0.2-0.8-1.3-1.9-2.8-1.8l0.2,3.1h0.2v2.8v0.1l0,0v7.1C101.5,81.1,102.4,82.2,102.7,83.3z"/>
	<polygon class="st1" points="45.8,5.8 36.4,10.1 24,16 22.8,16 18.9,38.7 26.6,47.9 32.3,42.5 34.6,39.7 41.5,38 47.9,34 
		52.2,28.2 58.1,21.5 61.8,17.1 58.2,6.8 	"/>
	<path class="st1" d="M150.1,10.7l-1.5,1.1l-5,11.4h-6.3l-4.1,4.6l-2.4,1.7c-0.6,2.3,0.1,4.1,0.9,5.3c1.4,2.1,3.9,3.5,6.6,3.9
		c1.1-7.6,9.5-14.3,15-17.9c0.7-0.4,1.4-1,2.2-1.6c0.7-0.5,1.5-1.1,2.3-1.6c-0.9-1.5-1.8-3.1-2.1-3.9
		C155.3,13.1,152.6,11.7,150.1,10.7z"/>
	<path class="st1" d="M177.5,55.7c-0.5,1.4-2.3,6.7-3.3,8.4c-1.1,1.8-3.6,6.9-3.7,7l-0.1,0.2l-4.3,4.9l3.3,4.1l8.1,7.5l2.2,3.8
		l28.6-11.2l-4.1-11.2l-7-13.9l-2.6-10.8l-2.4-2l-1.7,1.4l-4.3,6.2L177.5,55.7z"/>
	<path class="st1" d="M199.1,54.7l6.9,13.8l4.2,11.5h15.1v0.2c0.6,0.1,1.4,0.2,2.3-0.2c1.6-0.7,9.2-3.9,11.1-4.6l1.9-5.2l3.1-7
		l1.9-7.2h-15.8l-16.5-9.1l-4.3-7.1h-2.8h-1.1h-9.6l-1.7,1.4l2.6,2.2L199.1,54.7z"/>
	<polygon class="st1" points="62,62.7 62,59 64.3,48.8 67.4,45.9 67.5,43.8 62.6,40 50.9,40 49.1,35.5 42.3,39.9 35.7,41.5 33.7,44 
		27.2,50.1 25.8,51.6 25.6,52.1 58.8,64.7 	"/>
	<path class="st1" d="M169.7,37.7l2,5.3l2.5,9.4l2.5,1.5l8.2-5.3l3.6-5.2l-2.6-2.2l-8-10.4v-5.3l-10.8-2.4l-4.3-1.6
		c-1.2,0.7-2.5,1.7-3.6,2.5c-0.9,0.6-1.7,1.2-2.5,1.7c-1.3,0.8-2.5,1.7-3.7,2.7l4.3,2.9L169.7,37.7z"/>
	<path class="st1" d="M63.3,38l4.2,3.3l0.2-7.1l0.5-0.3c1.1-0.7,2.2-1.5,2.4-1.9c0.2-1.1,1.4-5.1,2.6-8.8h-1.4l-3.6-4.8h-4.7
		l-3.8,4.5l-5.9,6.7l-3.2,4.3l1.6,4.2h11.1V38z"/>
	<path class="st1" d="M214.7,45.4l15.6,8.6h16.1c1.4-1.6,5.4-6.3,6.5-7.6c-0.1-1.3-1-6.7-1.9-11.5l-2.4-7.8l-9.3-4.1l-11.5-7.2
		l-9.8,1l-4.9,3l-8.8,0.3l1.7,17.7h4.1L214.7,45.4z"/>
	<path class="st1" d="M128.3,339.7v-13.4l-21.3-6.9c-1.2,0.1-6.5,0.4-8.9,0.1l-8.1,8.7l2.8,2.7l2.2,3.9l5.3,8l2.1,7.3l6,2.5
		l11.9,10.8l8.3-10.4l3-2.8v-10.6L128.3,339.7L128.3,339.7z"/>
	<path class="st1" d="M78.7,99.4l5.1,10.3l8.9,6.3l7.6,8.2l7.2,4h4.3l2.3-2.1l2.8-6.6l4.2-5.7l4.6-2.2c-2.6-2.3-6.7-5.7-6.8-5.7
		l-0.1-0.1l-7.4-8.4l-3.6-3.2v-5.5c-6.9-3.6-7.1-4.7-7.2-5.1c-0.1-0.5-0.9-1.5-1.4-2.1l-0.3-0.3v-7.7c-4,0.7-7.6,2.8-11.4,5.1
		l-0.3,0.2c-1.7,1-3.8,1.9-6.1,2.9c-3.4,1.5-7.2,3.1-8.8,4.8c0,0,0,0.1-0.1,0.1l3,6.3L78.7,99.4z"/>
	<polygon class="st1" points="107.8,148.5 106.2,133.6 106.2,129.8 98.9,125.7 91.3,117.5 83.1,111.7 78.7,115.3 75.3,125.6 
		69.8,133.6 72.3,137.7 75.3,139.6 76.8,142.5 78.5,144.2 84,149 84,154.3 88.5,159.8 92.6,162.4 94.3,164.1 97.4,163.7 
		104.2,160.3 104.2,150.7 	"/>
	<path class="st1" d="M77.6,35.7h-7.9l-0.2,11l-3.2,3.1l-2.2,9.5v4.4l-3,1.9l8.5,15.6c2.5-2,6-3.5,9.3-4.9c2.1-0.9,4-1.7,5.4-2.6
		l0.3-0.2c3.8-2.2,8-4.7,12.9-5.7C97.4,63.3,98.1,56.3,99,52l-10.2-8.1L77.6,35.7z"/>
	<path class="st1" d="M245.6,64l-3.1,7l-1.9,5.2l0.6,2.1l51.7-8.5l-0.7-6.4l-8.9-7.5l-7.9-7.9h-21c-1,1.1-4.3,4.9-6.6,7.6L245.6,64z
		"/>
	<path class="st1" d="M255,45.9h17.9l3-28.5l-13.5,2.7l-5.8,2.9l-6,3.8l2.4,7.7C254.4,41.2,254.8,44.4,255,45.9z"/>
	<path class="st1" d="M59.4,136.1l8.7-3.3l5.6-8.2l3.4-10.4l4.8-4l-4.8-9.8l-3.3-6.3l-2.6-5.5c-0.5,0.7-0.9,1.5-1.4,2.3
		c-1.3,2.3-2.7,4.9-6.3,7.5l-0.4,0.3c-4.1,3-7.3,5.4-12.3,7.2c-3.1,1.1-6.2,1.4-9.1,1.6c-2.7,0.2-5.3,0.5-7.7,1.3
		c-3.7,1.3-7.2,4.2-10.5,7c-0.7,0.6-1.4,1.2-2.1,1.8l4.2,5.4l19.4,1.5v9.7l-9.6,6.1v1.6l9.6-2.5L59.4,136.1z"/>
	<polygon class="st1" points="43.2,164 34.4,161.6 21.5,174.3 48.4,170.5 45.9,167.8 	"/>
	<polygon class="st1" points="87.1,161.3 82,155 82,149.9 77.2,145.6 75.2,143.8 73.7,141 70.8,139.1 68.2,134.8 59.9,138 
		45.3,141.2 35.2,143.9 35.2,146.8 35.2,147.6 35.2,159.8 44.4,162.3 47.5,166.6 50,169.3 52,170 91.8,164.5 91.3,163.9 	"/>
	<polygon class="st2" points="372.7,5.9 371.5,6.2 374.2,52.9 377.3,63.7 379.4,63.7 376.2,52.7 374,15.8 373.2,15.9 372.8,14 
		373.9,13.8 373.2,0.4 371.2,0.4 371.4,4.2 372.1,3.9 	"/>
	<path class="st2" d="M46,5.6l-0.2,0.1l12.4,1L61.9,17l0.4-0.4l1.5,1.3l-0.3,0.4h4.7l3.6,4.8h1.4c0.1-0.4,0.3-0.9,0.4-1.3l1.9,0.6
		c-0.1,0.2-0.1,0.5-0.2,0.7h3.1l12.1-11l5.4-5.4l6.5-3.5l2.5-2.8h-2.7l-1.1,1.2L94.8,5L89,10.7L77.5,21.2h-4.8l-3.6-4.8h-5.5L59.9,6
		l-0.2,0.4l-1.8-0.9l0.3-0.6l-11.9-1l-0.6-3.4h-2l0.7,3.8L45.1,4L46,5.6z"/>
	<polygon class="st2" points="59.8,6.3 60,5.9 62.7,0.4 60.5,0.4 58.3,4.8 58,5.4 	"/>
	<path class="st2" d="M123.6,25.2V7.5l-3-2.2V0.4h-2v5.9l3,2.2v17.1l1.2,2.6c0.4-0.6,0.9-1.2,1.4-1.8L123.6,25.2z"/>
	<path class="st2" d="M130.8,29.5l2.4-1.7l4.1-4.6h6.3l5-11.4l1.5-1.1c-0.2-0.1-0.3-0.1-0.5-0.2l0.8-1.8c0.2,0.1,0.4,0.2,0.6,0.3
		V0.4h-2V9l-2,1.4l-4.7,10.7h-5.9l-3.8,4.3l-1.1,2.2C131.1,28.3,130.9,28.9,130.8,29.5z"/>
	<path class="st2" d="M181.1,0.4h-3.3l0.3,0.6l4.3,2.5c0.3-0.7,0.5-1.3,0.8-1.9L181.1,0.4z"/>
	<path class="st2" d="M170.5,21.8l-2.8-0.6l-2.4-0.9c-0.7,0.2-1.6,0.6-2.6,1.2l4.3,1.6l10.8,2.4v5.3l8,10.4l2.6,2.2l0.5-0.7l1.6,1.1
		l-0.1,0.1l1.7-1.4l-0.6-0.5l1.3-1.5l0.9,0.8l1.7-1.4h9.6v-2h0.9l-1.7-17.7l8.8-0.3l4.9-3l9.8-1l11.5,7.2l9.3,4.1l-0.1-0.4l1.9-0.6
		l0.2,0.7l6-3.8l5.8-2.9l13.5-2.7l0.1-1.4l2,0.2l-0.1,0.6l13.2-4.8h-0.1l-0.1-2l1.1-0.1V1.5h-4.2l-0.1-1.1h-2l0.3,3.1h4v6.9
		l-13.2,4.8l-14.8,2.9l-6.2,3l-6.3,4l-9.1-4l-12.1-7.5l-1.2,0.1l-0.3,1.3l-2-0.4l0.1-0.7l-7.7,0.8l-4.8,2.9l-8.9,0.3l0.3,0.3
		l-1.3,1.5l-0.3-0.3l1.7,18.1h-9.3l-5,4.1l-2.4-2l-7.5-9.8v-6.2l-4.7-1.1C173.4,22.9,171.9,22.4,170.5,21.8z"/>
	<path class="st2" d="M149.6,10.5c0.2,0.1,0.3,0.1,0.5,0.2c2.5,1,5.2,2.4,5.6,3c0.3,0.7,1.2,2.4,2.1,3.9c0.6-0.4,1.1-0.7,1.7-1.1
		c-0.9-1.6-1.8-3-1.9-3.5c-0.3-1-2.6-2.3-6.6-4c-0.2-0.1-0.4-0.2-0.6-0.3L149.6,10.5z"/>
	<path class="st2" d="M226.9,15.2l0.3-1.3l1.5-7.5c1-1.3,1.7-3.8,2-5.9h-2c-0.4,2-0.9,4-1.6,4.7l-0.2,0.2l-1.7,8.7l-0.1,0.7
		L226.9,15.2z"/>
	<polygon class="st2" points="203.9,18.4 203.6,18.2 199.5,14.5 199.5,10.3 194.1,5.4 194.1,0.4 192.1,0.4 192.1,6.3 197.5,11.2 
		197.5,15.4 202.3,19.7 202.6,19.9 	"/>
	<polygon class="st2" points="12.4,260.5 9.2,262.2 0.3,264.5 0.3,266.6 9.9,264.2 13,262.5 23.9,262.5 23.9,260.5 	"/>
	<path class="st2" d="M7.6,120l-7.3-4.1v2.3l5.8,3.3C6.6,120.9,7.1,120.5,7.6,120z"/>
	<polygon class="st2" points="22.9,15.1 22.8,16 24,16 36.4,10.1 45.8,5.8 46,5.6 45.2,3.8 44.5,4.2 35.6,8.3 23.6,14 14.6,14 
		8,7.7 0.3,7.7 0.3,9.7 7.2,9.7 13.8,16 20.7,16 20.9,14.8 	"/>
	<path class="st2" d="M35.2,146.8v-2.9l-0.7,0.2l-0.5-1.9l1.3-0.3v-1.6l9.6-6.1v-9.7L25.5,123l-4.2-5.4c-0.2,0.2-0.5,0.4-0.7,0.6
		c-0.3,0.2-0.5,0.4-0.8,0.6l4.7,6.1l18.4,1.4v6.7l-9.6,6.1v6.9l-12.9,4.2l-13.2,2v-2.6c-0.4,0.2-0.8,0.4-1.2,0.6
		c-0.3,0.2-0.6,0.3-0.8,0.5v3.9l15.6-2.4l12.5-4.1v-1.4L35.2,146.8L35.2,146.8z"/>
	<path class="st2" d="M30.1,94.6l-4.3-9.3L19,73.6L25.1,54l-1-0.4l0.7-1.9l0.9,0.3l0.2-0.5l1.4-1.5l6.5-6.1l2-2.4l6.6-1.6l6.8-4.4
		l-0.6-1.6l1.9-0.7l0.2,0.5l3.2-4.3l5.9-6.7l3.8-4.5l0.3-0.4l-1.5-1.3L62,16.9l-3.7,4.4L52.4,28l-4.3,5.8l-6.4,4.1l-6.9,1.7
		l-2.3,2.8l-5.7,5.3l0.7,0.8L26,49.8l-0.6-0.7l-1.2,1.2l-7,22.5l0.3-0.2l1,1.7l-0.9,0.5l6.5,11.1l4.3,9.3l4.3,7.3
		c0.7-0.2,1.3-0.4,2-0.5L30.1,94.6z"/>
	<polygon class="st2" points="27.3,48.7 26.6,47.9 18.9,38.7 22.8,16 22.9,15.1 20.9,14.8 20.7,16 17,38 17.9,38 17.9,40 17.4,40 
		25.2,49.3 25.8,50 	"/>
	<polygon class="st2" points="17.9,38 17,38 0.3,38 0.3,40 17.4,40 17.9,40 	"/>
	<polygon class="st2" points="17.4,72.8 17,73 11.9,76 6.9,78.1 6.8,75.9 0.3,75.9 0.3,77.9 4.9,77.9 5.1,81 12.7,77.8 17.5,75.1 
		18.4,74.6 	"/>
	<path class="st2" d="M73.5,21.8c-0.1,0.4-0.3,0.9-0.4,1.3c-1.2,3.7-2.4,7.8-2.6,8.8c-0.2,0.4-1.3,1.2-2.4,1.9l-0.5,0.3l-0.2,7.1
		l1.5,1.2L67.7,44l-0.3-0.3v2.1l-3.1,3L61.9,59v3.7l-3.2,2L25.6,52.1l-0.9-0.3L24,53.7l1,0.4L59,67l0.3-0.2l-0.5-0.9l1.8-1l0.4,0.8
		l3-1.9v-4.4l2.2-9.5l3.2-3.1l0.2-11h-1v-2h3c0.9-0.8,0.9-1.3,0.9-1.5c0.1-0.6,1.4-5,2.7-9.1c0.1-0.2,0.1-0.5,0.2-0.7L73.5,21.8z"/>
	<polygon class="st2" points="62.6,40 67.5,43.8 67.8,44 69,42.4 67.5,41.3 63.3,38 52.2,38 50.6,33.7 50.4,33.2 48.5,33.9 
		49.1,35.5 50.9,40 	"/>
	<path class="st2" d="M68.7,35.7h1h7.9L88.7,44l10.2,8.1c0.2-0.8,0.3-1.6,0.5-2.2l-9.5-7.5l-11.6-8.7h-6.6h-3V35.7z"/>
	<path class="st2" d="M110,149.6l-1.7-16v-3.3h-1v-2h0.3l-7.2-4l-7.6-8.2l-8.9-6.3l-5.1-10.3l-3.3-6.3l-3-6.3
		c-0.5,0.6-1,1.2-1.4,1.8l2.6,5.5l3.3,6.3l4.8,9.8l0.6-0.5l1.3,1.5l-0.6,0.5l8.2,5.8l7.7,8.2l7.3,4.2v3.8l1.6,14.9l-3.6,2.2v9.6l2-1
		v-7.4L110,149.6z"/>
	<path class="st2" d="M60.5,64.8l-1.8,1l0.5,0.9l8.7,15.9l0,0c0.4-0.5,1-0.9,1.5-1.3l-8.5-15.6L60.5,64.8z"/>
	<polygon class="st2" points="34.4,161.6 33.9,161.5 34.4,159.6 35.2,159.8 35.2,147.6 35.2,146.8 33.2,146.8 33.2,148.2 
		33.2,160.1 18.2,174.8 21.5,174.3 	"/>
	<polygon class="st2" points="47.5,166.6 44.4,162.3 35.2,159.8 34.4,159.6 33.9,161.5 34.4,161.6 43.2,164 45.9,167.8 48.4,170.5 
		52,170 50,169.3 	"/>
	<polygon class="st2" points="59.9,138 68.2,134.8 67.8,134.1 69.5,133.1 69.8,133.6 75.3,125.6 78.7,115.3 83.1,111.7 83.7,111.2 
		82.4,109.6 81.8,110.1 77,114.2 73.6,124.6 68,132.8 59.4,136.1 44.8,139.3 35.2,141.8 33.9,142.2 34.4,144.1 35.2,143.9 
		45.3,141.2 	"/>
	<polygon class="st2" points="88.5,159.8 84,154.3 84,149 78.5,144.2 76.8,142.5 75.3,139.6 72.3,137.7 69.8,133.6 69.5,133.1 
		67.8,134.1 68.2,134.8 70.8,139.1 73.7,141 75.2,143.8 77.2,145.6 82,149.9 82,155 87.1,161.3 91.3,163.9 91.8,164.5 94.3,164.1 
		92.6,162.4 	"/>
	<path class="st2" d="M144.6,138c0.1-0.8-0.8-2.2-3.1-5.8c-1.4-2.1-2.9-4.4-3.6-5.9c-1.5-3.3-4.9-8.3-6.3-9.2
		c-0.2-0.1-0.5-0.9-0.7-1.4c-0.4-1.2-1-2.7-2.4-4.1v1l-1.2,0.6c0.9,1,1.3,2.2,1.7,3.2c0.4,1,0.7,1.9,1.5,2.4s4,5,5.6,8.4
		c0.7,1.6,2.2,3.9,3.7,6.1c1.1,1.7,2.6,4,2.8,4.7c0,0.8,0,3.7,0,6l2-1.1C144.6,140.7,144.6,138.5,144.6,138z"/>
	<polygon class="st2" points="100.9,70.6 101,73.4 101,70.6 	"/>
	<path class="st2" d="M99.3,81.7c0.5,0.5,1.3,1.5,1.4,2.1c0.1,0.4,0.3,1.5,7.2,5.1v5.5l3.6,3.2l7.4,8.4l0.1,0.1c0,0,4.2,3.4,6.8,5.7
		l0.8-0.4v-1.6c-2.5-2.1-5.7-4.8-6.3-5.3l-7.4-8.4l-3.1-2.7v-5.8l-0.5-0.3c-1-0.5-2-1-2.9-1.6l-2.1,0.7l-0.6-1.9l0.5-0.2
		c-0.8-0.5-1.3-0.9-1.5-1.2c-0.2-1-1.1-2.1-1.6-2.7v-7.1c-0.7,0-1.3,0.1-2,0.3v7.7L99.3,81.7z"/>
	<polygon class="st2" points="174.3,116.8 174.3,109.8 173.2,109.7 173.4,107.7 173.8,107.8 170.1,103.7 169.4,104.4 168,103 
		168.7,102.2 165.2,98.5 159.1,98.5 156,101.7 149.6,107.7 126.6,107.7 126.6,109.8 126.6,111.4 125.8,111.8 121.2,113.9 117,119.6 
		114.2,126.2 111.8,128.3 107.5,128.3 107.2,128.3 107.2,130.3 108.2,130.3 112.6,130.3 115.9,127.4 118.7,120.7 122.5,115.5 
		127.4,113.3 128.6,112.7 128.6,111.6 128.6,109.7 150.4,109.7 157.4,103.1 159.9,100.5 164.4,100.5 172.3,109.1 172.3,114.8 
		169,114.8 168.9,129.9 170.9,129.6 171,116.8 	"/>
	<path class="st2" d="M146,65.2l-6.2,2.8l-8.1,4.9l-4.6,3.5l-9.6,3.6l-13.3,4.4l-0.5,0.2l0.6,1.9l2.1-0.7l11.7-3.9l9.8-3.7l4.8-3.7
		l7.9-4.8l7.3-3.3v-2.2l-1.3-0.4l0.6-1.9l0.5,0.2L143,44.5l-1.5,0.2c-0.2,0-0.4,0-0.5,0l4.9,18.3v2.2H146z"/>
	<polygon class="st2" points="198.7,117.9 188.9,109.4 173.8,107.8 173.4,107.7 173.2,109.7 174.3,109.8 188.1,111.3 197.5,119.5 
		204.1,122.8 204.1,125 206.1,124.7 206.1,121.6 	"/>
	<polygon class="st2" points="178.9,91.9 179.7,91.6 177.5,87.8 169.4,80.3 166.1,76.2 165.5,76.8 164,75.5 164.6,74.8 160.2,71.4 
		155,64.5 147.8,62 147.3,61.9 146.7,63.8 148,64.2 153.8,66.2 158.7,72.7 164.1,76.9 167.9,81.6 175.8,88.9 178,92.7 168.7,102.2 
		168,103 169.4,104.4 170.1,103.7 179.8,93.7 179.6,93.7 	"/>
	<path class="st2" d="M176.6,53.9l0.5,0.3l-1,1.7l-0.7-0.4c-0.8,2.2-2.2,6.3-3,7.6c-1,1.7-3.3,6.2-3.7,7l-4.1,4.8l-0.6,0.7l1.5,1.3
		l0.5-0.6l4.3-4.9l0.1-0.2c0-0.1,2.6-5.1,3.7-7c1-1.7,2.8-7,3.3-8.4l8.8-5.6l4.3-6.2l0.1-0.1l-1.6-1.1l-0.5,0.7l-3.6,5.2L176.6,53.9
		z"/>
	<path class="st2" d="M168.1,39.1l1.7,4.4l2.7,10.1l3,1.8l0.7,0.4l1-1.7l-0.5-0.3l-2.5-1.5l-2.5-9.4l-2-5.3l-12.5-6.4l-4.3-2.9
		c-0.6,0.4-1.1,0.9-1.6,1.3l4.8,3.3L168.1,39.1z"/>
	<polygon class="st2" points="197.2,55.3 204.2,69.2 208.3,80.4 179.7,91.6 178.9,91.9 179.6,93.7 179.8,93.7 209.8,82 209.6,82 
		209.6,80 210.3,80 206.1,68.5 199.1,54.7 196.4,43.4 193.8,41.2 192.9,40.4 191.6,42 192.2,42.5 194.6,44.5 	"/>
	<path class="st2" d="M226.9,116.5l1.9-21.5l-3.3-2.6V82.3c-0.8-0.1-1.3-0.3-1.4-0.3l0.8-1.8c0,0,0.2,0.1,0.6,0.2v-0.2h-15.2h-0.7v2
		h0.2h13.7v11.3l3.3,2.6l-1.7,19.9l-1.5,2.2v4.9l2-0.1v-4.1L226.9,116.5z"/>
	<path class="st2" d="M209,39.8l4.3,7.1l16.5,9.1h15.8l0.3-1.3l1.9,0.5l-0.1,0.2c2.3-2.7,5.6-6.5,6.6-7.6h-0.4v-2h1
		c-0.1-1.6-0.6-4.7-1.9-11.4l-2.4-7.7l-0.2-0.7l-1.9,0.6l0.1,0.4l2.4,7.8c0.9,4.8,1.8,10.2,1.9,11.5c-1.1,1.2-5.1,5.9-6.5,7.6h-16.1
		l-15.6-8.6l-4.6-7.7H206h-0.9v2h1.1h2.8V39.8z"/>
	<path class="st2" d="M245.6,64l2.2-8.4l0.1-0.2l-1.9-0.5l-0.3,1.3l-1.9,7.2l-3.1,7l-1.9,5.2c-1.8,0.8-9.5,4-11.1,4.6
		c-0.9,0.3-1.7,0.3-2.3,0.2c-0.4-0.1-0.6-0.2-0.6-0.2L224,82c0,0,0.6,0.2,1.4,0.3c0.3,0,0.6,0.1,0.9,0.1c0.7,0,1.4-0.1,2.1-0.4
		c1.5-0.6,7.9-3.3,10.4-4.4l-0.3-1.1l1.9-0.6l0.1,0.3l1.9-5.2L245.6,64z"/>
	<polygon class="st2" points="291,12.1 291.2,12.1 306.9,11.3 306.7,10.5 308.6,10 308.9,11.2 327.4,10.2 327.2,10.1 328,8.3 
		328.6,8.5 328.6,0.4 326.6,0.4 326.6,8.2 292,10.1 290.9,10.1 	"/>
	<polygon class="st2" points="0.3,350.5 0.3,350.8 0.4,350.7 	"/>
	<polygon class="st2" points="73.8,295.4 74.4,295.7 75.8,296.4 82,292.4 91.6,289.2 94.7,292.1 94.7,292.1 90,287.7 81.2,290.6 	
		"/>
	<polygon class="st2" points="16.4,343.5 17.1,344.9 18.7,344.9 23.4,339.4 28.3,331.9 31.1,327.8 30.3,327.5 31.1,325.6 
		32.2,326.1 34.6,322.5 39.4,315.9 45.7,309.9 63.2,309.9 62.9,309.5 64.6,308.4 64.8,308.6 64.8,305 72.5,298.6 73.9,297.7 
		73.4,297.4 72,296.6 71.4,297 62.8,304 62.8,307.9 46.1,307.9 46.2,308.8 44.3,309.1 44.2,308.6 37.9,314.5 33,321.3 28.4,328.1 
		29.1,328.4 28.5,330.3 27.3,329.9 26.7,330.8 21.9,338.1 17.8,342.9 0.3,342.9 0.3,344 1,344.9 14.9,344.9 14.6,344.4 	"/>
	<path class="st2" d="M148.8,287.1h-5.3l-17.9-7.1l0.2,0.4l-1.9,0.7l-0.2-0.5l-4.6,6.4h-3.8l-2.6-3.6h-4.6l-8.9,7h-3.3l-3.4-3.2l0,0
		l3.9,3.6l0.6,1.6h3l8.9-7h2.8l2.6,3.6h5.8l5-7.1l16.2,6.4l1.3-1.1l1.3,1.5l-0.3,0.2h6l3.4-3.3l6.3-0.5l-0.3-0.6l0.3-0.2
		c-0.1-0.4-0.2-0.8-0.2-1.2l-7,0.6L148.8,287.1z"/>
	<polygon class="st2" points="18.5,278.2 19.4,278.5 19.6,277.8 25.9,266.4 25.9,256.5 23.1,250.9 22.7,251.4 21.1,250.2 
		22.1,248.9 16.9,243.6 2.3,233.2 0.3,230.6 0.3,233.9 0.8,234.6 15.6,245 20.4,250 23.9,257 23.9,260.5 23.9,262.5 23.9,265.9 
		17.7,277 14.7,290.9 15.5,290.9 15.5,292.9 14.2,292.9 13.3,297.1 0.3,302.9 0.3,307.1 1.6,304.5 15,298.5 19,280.4 18,280.1 	"/>
	<polygon class="st2" points="1.7,224 3,223.6 3,215.2 5.8,215.2 4,206.8 0.3,201.5 0.3,205 2.1,207.6 3.3,213.2 1,213.2 1,226.6 
		0.3,226.6 0.3,228.6 3,228.6 3,225.7 2.2,225.9 	"/>
	<polygon class="st2" points="15.5,290.9 14.7,290.9 6.7,290.9 3.4,283.7 0.3,282.7 0.3,284.8 2,285.3 5.4,292.9 14.2,292.9 
		15.5,292.9 	"/>
	<polygon class="st2" points="29.1,328.4 28.4,328.1 20.6,325.6 14.1,319.3 5.2,311.6 0.3,307.3 0.3,309.9 3.9,313.1 12.7,320.7 
		19.6,327.4 27.3,329.9 28.5,330.3 	"/>
	<polygon class="st2" points="40.8,283.7 31.8,282 19.4,278.5 18.5,278.2 18,280.1 19,280.4 31.4,283.9 40.3,285.7 40.1,284.6 	"/>
	<path class="st2" d="M72.8,229.8l-2.7,6.9l0.4-0.2l0.7,1.9l-0.2,0.1h6.3v5.7l3.1,13.5h3.7l0.9,5.2l-2.8,4.9l0.8,0.3l-0.6,1.9
		l-1-0.3l-1.3,3.2l4.3,6.8l4.1,6.5l1.6,1.5l4.7,4.4l0,0l2.1,6.1l2.9,6.2l-4.6,2l-7.3-3.5l-12.1-6.4l-1.5-0.8l-0.5-0.3l-7.7-4.3
		l-22.5-6.8l-0.7-0.1l-0.7,0.9l0.2,1l0.7,0.1l22.1,6.6l6.7,3.8l1.5,0.8l0.5,0.3l13.1,7l8.2,3.9l1.2-0.5c0.1-0.6,0.2-1.2,0.3-1.8
		l2,0.3c0,0.2-0.1,0.4-0.1,0.5l3.9-1.7l-3.7-7.9l-1.7-4.9l-0.6-1.6l-3.9-3.6l0,0l-2.5-2.4l-4-6.4l-3.8-5.9l1.3-3.2l1.5-2.6l-0.3,0.1
		l-0.9-1.8l3-1.5l0.2-0.4l-1.3-7.6h-3.7l-2.7-11.6v-5.9l-0.7,0.2l-0.5-1.9h0.1h-6l2.4-6l1.5-10.4l4.6-6.9c-0.6-0.3-1.2-0.7-1.7-1.1
		l-4.8,7.3L72.8,229.8z"/>
	<polygon class="st2" points="29.8,213.8 29.9,214 32.5,207.7 34.8,204.3 44.8,200.5 44.4,200.2 45.7,198.6 46.5,199.3 48.5,197.4 
		49.5,196 48.6,195.5 49.7,193.8 50.6,194.4 52.9,190.8 52.9,176 50.9,176.2 50.9,190.2 47.1,196.1 44.5,198.5 37.9,201 38.3,201.7 
		36.6,202.7 36,201.7 33.5,202.6 30.7,206.6 28.2,212.9 21.3,212.9 14.9,217.4 7.8,222.2 3,223.6 1.7,224 2.2,225.9 3,225.7 
		8.5,224 16.1,219.1 21.9,214.9 27.9,214.9 27.8,214 	"/>
	<polygon class="st2" points="38.3,201.7 37.9,201 31.4,190.2 25.2,190.2 19.2,186.9 19.2,180.7 17.2,181 17.2,188.1 24.6,192.2 
		30.3,192.2 36,201.7 36.6,202.7 	"/>
	<polygon class="st2" points="22.7,251.4 23.1,250.9 32.1,238.5 31.6,238.5 31.6,236.5 32.5,236.5 29.9,214 29.8,213.8 27.8,214 
		27.9,214.9 30.5,237.2 22.1,248.9 21.1,250.2 	"/>
	<path class="st2" d="M56.4,198.1l-5.8-3.7l-0.8-0.5l-1.1,1.7l0.8,0.5l4.7,3l1.2-0.9l1.2,1.6l-0.4,0.3l10.9,4.4l8.1-0.6
		c0-0.4,0-0.8,0-1.2c0-0.2,0-0.5,0-0.8l-7.8,0.6L56.4,198.1z"/>
	<polygon class="st2" points="54.8,231.8 50.9,233.3 50.9,236.5 52.3,236.5 52.9,237.1 52.9,234.6 57.1,233 51,203.9 50.5,204.3 
		49.3,202.7 49.9,202.2 46.5,199.3 45.7,198.6 44.4,200.2 44.8,200.5 49,204 	"/>
	<polygon class="st2" points="46.2,308.8 46.1,307.9 42.4,286.1 42.3,285.1 42.9,284.1 46.1,279.9 55.3,266.8 58.9,262.6 
		58.3,262.4 58.9,260.5 59.6,260.7 59.6,253.2 56.8,245.7 52.9,240 52.9,239.9 51.5,238.5 50.9,238.5 50.9,240.6 55,246.5 
		57.6,253.6 57.6,261.1 53.8,265.5 44.5,278.7 40.8,283.7 40.1,284.6 40.3,285.7 44.2,308.6 44.3,309.1 	"/>
	<polygon class="st2" points="49.3,202.7 50.5,204.3 51,203.9 56.1,200.1 56.5,199.8 55.3,198.2 54.2,199.1 49.9,202.2 	"/>
	<polygon class="st2" points="62.1,241.7 71,238.5 71.1,238.4 70.5,236.6 70,236.7 61,240 58.5,242.8 52.9,237.1 52.3,236.5 
		50.9,236.5 32.5,236.5 31.6,236.5 31.6,238.5 32.1,238.5 50.9,238.5 51.5,238.5 52.9,239.9 58.6,245.7 	"/>
	<polygon class="st2" points="81.3,269.7 82.3,270 82.9,268.1 82.2,267.9 74.1,265.2 59.6,260.7 58.9,260.5 58.3,262.4 58.9,262.6 
		73.4,267.1 	"/>
	<path class="st2" d="M109.1,255.6l0.8,0.7l2.2-26.6c-0.3,0-0.6,0.1-1,0.1h-0.4c-0.2,0-0.4-0.1-0.7-0.1l-2.1,26.4L109.1,255.6z"/>
	<path class="st2" d="M91.8,233l-13.7,3.5H78l0.5,1.9l0.7-0.2l12.8-3.3l14.5-1.7l1.9-4.1c-0.6-0.2-1.3-0.5-1.8-0.8l-1.4,3L91.8,233z
		"/>
	<polygon class="st2" points="114.9,266.5 121,273.3 123.7,280.7 123.9,281.2 125.8,280.5 125.6,280 122.7,272.3 116.9,265.8 
		116.9,262.7 115.9,261.8 113.8,262.6 109.3,258.5 114.9,263.6 	"/>
	<path class="st2" d="M109.9,256.4l-0.8-0.7l-1.2,0.4l-18.3,6.2l-2.9,1.5l-3,1.5l0.9,1.8l0.3-0.1l5.4-2.8l18.2-6.2l0.6,0.6l4.5,4.2
		l2.1-0.8l24.5-9.1c-0.3-0.6-0.6-1.2-0.9-1.8l-25.2,9.3L109.9,256.4z"/>
	<path class="st2" d="M170.6,272.1l5.8,3.7l0.6-0.6c1.9-2,4.3-3.8,4.8-3.7c1.4,1.4,5,1.7,6.7,1.8l4.3,11.1l6-5.3h15.8l3.5-1.9
		l0.9,1.8l-0.2,0.1h0.2l3.5-4.3H222v-2h1.3l1.4-6l3.6-2.7l2.7-5.1l3.2-4.9l5.6-5.3h8.5l14.4,10.6h6.6l0.5-1.4l1.9,0.7v0.1l2.2-4.3
		l7.2-12.4l-0.9-0.6l1.1-1.7l0.9,0.6l3.9-5.6h21.2l9.3-7.8h10l2.7-2.5v-2.3h2v0.4l0.3-0.3l-5.6-9.1l-4.3-8l0.3-3.2h2.9l8.7-10.4l4,6
		h6.8l10.9-7.2l-3-4.2l0.3-2.1l1.7-1.8h8v-5.2h-1v-2h1v-2.3l-9.8-12.8l-5.2-7.6l-2.3,0.2l5.8,8.6l9.5,12.2v6.8h-6.8l-2.7,3l-0.5,3.5
		l2.2,3.2l-8.9,5.9h-5.1l-4.9-7.3l-9.8,11.7h-1.9v1h-2l0,0l-0.4,4.7l4.6,8.5l4.8,7.7l-3.2,3h-10l-9.3,7.8h-21.1l-1.3,1.8l0.5,2.1
		l-1.9,0.5l-0.1-0.4l-2.4,3.4l-7.8,13.3l-1.9,3.8h-6.8l-14.4-10.6h-10l-6.2,5.9l-1.1,1.6l0.8,0.6l-1.2,1.6l-0.8-0.6l-1.3,1.9
		l-2.5,4.8l-3.8,2.8l-1.9,7.7l-3.1,3.7H198l-4.4,3.9l-3.4-8.7l-0.1,0.3l-1.9-0.5l0.2-0.8c-1.9-0.1-4.5-0.5-5.2-1.2
		c-0.4-0.4-0.9-0.6-1.4-0.6c-1.8,0-4.5,2.4-5.7,3.7l-6-3.8l-4,5.4l-0.9,5.6c0,0.3,0,0.5-0.1,0.7c0,0.3-0.1,0.7-0.1,1.1
		c0.4,0.2,1.1,0.4,1.8,0.6l1.1-7.2L170.6,272.1z"/>
	<path class="st2" d="M129.8,208.4l-1-1.7l1-0.6l-7-14.9L111,163.6l-1.8,0.9l11.7,27.6l7.2,15.4l-6.5,11.5c0.6,0.1,1.3,0.3,2,0.6
		l6.4-11.3L129.8,208.4z"/>
	<path class="st2" d="M222.9,249.3l-1.5-1.3c0.2-0.2,0.3-0.4,0.5-0.5l-8.9-4l-9.5-4.8l-7-7l-11.4-10.4l-1.5-1.5l-1.9,1l2,2l2.9,2.6
		c0-0.2,0.1-0.4,0.1-0.6l2,0.4c-0.1,0.6-0.2,1.1-0.4,1.7l6.8,6.2l7,7l9.9,5.1l9.6,4.3l9.1,6.5l0.8,0.6l1.2-1.6l-0.8-0.6l-8.2-5.9
		C223.4,248.7,223.2,249,222.9,249.3z"/>
	<path class="st2" d="M148.8,157.8l5.1,5.8l4.7,11.9v9.9l0.6-0.3l0.9,1.8l-1.4,0.7v0.1l0.1,0.2c0,0.1,2.3,5.3,2.8,7
		c0.1,0.3-0.1,0.7-0.3,1.4c-0.4,0.9-1.1,2.5,0.7,3.9c1.2,0.9,3.2,6.5,4.2,10.2l0.1,0.3l6.6,5l6.7,2.7l0.8,0.8l1.9-1l-1.6-1.5
		L174,214l-5.9-4.5c-0.6-2.2-2.8-9.5-4.9-11c-0.5-0.4-0.5-0.5-0.1-1.5c0.3-0.7,0.7-1.7,0.4-2.7c-0.5-1.6-2.4-6.1-2.8-7v-12.2
		l-4.9-12.6l-6-6.8h-16l-2.2,1.2l1.6,0.8h15.6V157.8z"/>
	<path class="st2" d="M153.5,253.7c0,0,1.1-4.2,3.4-6.2c0.9-0.8,2.6-1.9,4.5-3.2c4.3-2.9,7.2-4.9,8-6.4c0.9-1.7,5.8-7.1,7.6-9
		l4.4-8.1l0.3-0.2l1.9-1l2.6-1.3l4.3-5.2l-3.2-5.7l2.9-8.4l-0.1-0.3c-0.4-1.5-1.4-6.2-0.1-8c1.4-1.9,3.2-4.6,4-5.8l-0.8-0.3l0.8-1.9
		l0.1,0.1l-9.2-7.6l-1.5-28.4l-3.1-12.4l-2,0.3l3,12.3l1.5,29.2l9.3,7.7c-0.8,1.3-2.6,3.8-3.9,5.7c-1.9,2.6-0.6,7.9-0.2,9.4l-3,8.6
		l2.9,5.3l-3.1,3.8l-2.8,1.5l-1.9,1l-0.2,0.1l-4.5,8.3c-1,1.1-6.7,7.2-7.8,9.4c-0.6,1.2-4.5,3.8-7.3,5.6c-1.9,1.3-3.7,2.4-4.7,3.3
		c-2.5,2.1-3.7,5.9-4,7l-2.5,2.7c0.4,0.6,0.7,1.2,1.1,1.7l3.2-3.4L153.5,253.7z"/>
	<polygon class="st2" points="159.2,185.2 158.6,185.4 150.7,189.2 142.9,194.4 137.5,201.5 129.7,206.1 128.8,206.7 129.8,208.4 
		130,208.3 138.8,203 144.3,195.9 151.6,191 158.6,187.7 160,187 	"/>
	<path class="st2" d="M197.8,258.5l-3.4-4.9L190,247l-1.9-3.4l-3.8-3.2v-2.5c1.2-1.3,2.6-2.9,2.6-3.9c0-0.5,0.7-3.8,1.4-7.2
		c0.1-0.6,0.2-1.1,0.4-1.7l-2-0.4c0,0.2-0.1,0.4-0.1,0.6c-0.5,2.4-1.7,7.8-1.7,8.6c-0.1,0.4-1.2,1.8-2.3,2.9l-0.3,0.3v4.2l4.3,3.6
		l1.8,3.1l4.4,6.7l2.6,3.7l-5.6,7.3l-1.3,5.5l-0.2,0.8l1.9,0.5l0.1-0.3l1.4-5.6L197.8,258.5z"/>
	<path class="st2" d="M209.9,192.6c1.4,0.5,7,4.2,11.7,7.6l0.1,0.1h0.2c0.8,0.2,19.6,5.6,21.1,5.9c0.6,0.2,1.4,0.8,2,1.4
		c-1.8,3.2-8.7,15.7-9.4,18.2c-0.3,1.2-1.8,3.7-3.1,5.9c-2,3.3-2.8,4.8-2.8,5.6c-0.2,1-4.1,5.8-7.8,10c-0.2,0.2-0.3,0.4-0.5,0.5
		l1.5,1.3c0.2-0.3,0.5-0.6,0.7-0.8c3.8-4.4,8-9.5,8-10.9c0.1-0.6,1.5-3,2.5-4.7c1.4-2.4,2.9-4.9,3.3-6.4c0.6-2.1,6.6-13.2,9.2-17.9
		H246v-2h0.5c-0.6-0.6-1.8-1.9-3.2-2.2c-1.2-0.3-15.2-4.3-19.7-5.5l-0.8,1.2l-1.6-1.2l0.6-0.8c-9.9-7.1-12-7.7-12.7-7.4
		c-1.2-0.3-5.5-3-9.1-5.4l-6-2.5l-0.1-0.1l-0.8,1.9l0.8,0.3l5.1,2.1C207,192.3,209.1,192.9,209.9,192.6z"/>
	<path class="st2" d="M231,157.7l-2.8,9.2l-1.5,24.3l-4.8,6.7l-0.6,0.8l1.6,1.2l0.8-1.2l4.9-6.9l1.5-24.5l2.5-8.1l-1.2-1l1.3-1.5
		l0.1,0.1c-6.1-8.7-12.7-18.6-13.2-20.1c0-0.5-0.5-2.1-3.7-7.4l-2.2,0.3c2,3.2,3.7,6.3,3.9,7.1C217.6,137.4,218.3,139.5,231,157.7z"
		/>
	<path class="st2" d="M310.3,150.4c0,0,2.9,2.3,3.9,3.7c0.3,0.4,0.4,2,0.2,4.1l0.8-0.1l0.3,2l-1.3,0.2c-0.1,0.7-0.2,1.3-0.3,2
		l-0.1,0.8l2.1,0.7l4,23.8v4.5l0.9-0.1l0.1,2l-1.1,0.1v7l0,0h2v-1v-12.7l-4.2-25.2l-1.6-0.6c0.3-2.4,0.8-7.4-0.3-8.9
		c-0.9-1.3-3-3-3.8-3.7l0.6-11l-1.9-1.7l-0.7,13.5L310.3,150.4z"/>
	<polygon class="st2" points="314.3,160.3 315.6,160.1 315.2,158.1 314.5,158.3 269.9,165.9 257.5,164 258,166.2 269.9,168 	"/>
	<polygon class="st2" points="255.9,165.9 255.4,163.8 239.2,162.2 232.9,156.9 232.8,156.8 231.5,158.3 232.6,159.3 238.4,164.1 	
		"/>
	<polygon class="st2" points="260.2,213.2 252.5,206.5 246.7,206.5 246.2,206.5 246.2,208.5 246.8,208.5 251.8,208.5 260.3,215.9 
		267.9,209 267.2,208.1 268.8,206.9 269,207.2 269,197.7 320,194.2 321,194.1 320.9,192.1 320,192.2 268.5,195.8 268.9,196.2 
		267.2,197.4 267,197.1 267,207.1 	"/>
	<polygon class="st2" points="277,219.2 272.2,211.4 269,207.2 268.8,206.9 267.2,208.1 267.9,209 270.5,212.5 275.3,220.2 
		280.4,229 282.5,237 282.6,237.4 284.5,236.9 284,234.8 282.3,228.4 	"/>
	<path class="st2" d="M271.4,348.4l15.9-17.7l3.8-6l-0.7-0.2l0.6-1.9l1.2,0.4l2.9-4.5l11.2-16.1l12.6-7.1l-0.5-0.4l1.3-1.5l1.1,0.9
		l2.5-1.4l9.6-8.2h-14.3v-12.3l-1.4-0.7l0.9-1.8l0.6,0.3v-4.3l-4.3-8.1l-14-7.8l-4.8-2.2l-8.8-4.3l-4.3-2.8l-0.9-0.6l-1.1,1.7
		l0.9,0.6l4.3,2.8l9,4.4l4.7,2.2l13.4,7.5l3.8,7.2v20.1h10.9l-5.3,4.5l-17.3,9.7l-0.1,0.1l0.8,1l-1.6,1.3l-0.5-0.6l-10.2,14.7
		l-7.7,12.1l-15.9,17.7l-9.7,14.2l-1.1,1.7c0.5,0.4,1.1,0.7,1.7,1.1l1.1-1.7L271.4,348.4z"/>
	<polygon class="st2" points="254.8,105.9 248.1,96.3 246.3,96.4 246.2,94.4 246.7,94.4 245.3,92.4 241.8,80.2 240.6,80.4 
		240.3,78.4 241.2,78.3 240.6,76.2 240.5,75.9 238.6,76.4 238.9,77.5 243.4,93.3 253.1,107 258.6,116.5 259.4,121.1 261.4,121 
		260.5,115.8 	"/>
	<polygon class="st2" points="253,154.9 255.4,163.8 255.9,165.9 262.4,190.6 267,197.1 267.2,197.4 268.9,196.2 268.5,195.8 
		264.3,189.7 258,166.2 257.5,164 255,154.7 255,136.7 260.4,127 258.1,127.2 253,136.2 	"/>
	<polygon class="st2" points="298.7,103.5 296.4,88.3 296.4,83.8 295.9,84.1 294.9,82.4 296.2,81.6 294.2,62.3 284.7,54.4 
		276.2,45.9 274.9,45.9 274.8,47 272.8,46.8 272.9,45.9 255,45.9 254,45.9 254,47.9 254.4,47.9 275.4,47.9 283.3,55.8 292.3,63.3 
		292.9,69.8 293.9,69.6 294.2,71.6 293.2,71.8 294.4,83.3 294.4,88.4 294.9,91.9 296,91.8 296.1,93.8 295.2,93.9 296.6,103.3 
		294.1,110.2 292.7,119.5 294.7,119.4 296,110.8 	"/>
	<polygon class="st2" points="240.3,78.4 240.6,80.4 241.8,80.2 293.2,71.8 294.2,71.6 293.9,69.6 292.9,69.8 241.2,78.3 	"/>
	<polygon class="st2" points="246.2,94.4 246.3,96.4 248.1,96.3 295.2,93.9 296.1,93.8 296,91.8 294.9,91.9 246.7,94.4 	"/>
	<polygon class="st2" points="272.8,46.8 274.8,47 274.9,45.9 278,16.9 278,16.3 276,16.1 275.9,17.5 272.9,45.9 	"/>
	<polygon class="st2" points="331.1,106 316.8,90.4 312.5,81.1 312.5,77.2 310.5,77.2 310.5,81.5 315,91.4 330,107.8 335.3,109 
		338.2,107.7 	"/>
	<polygon class="st2" points="334.7,113.8 338.8,109.7 335.9,109.7 333.2,112.5 322.2,126.2 316.9,134.1 318.4,135.4 323.8,127.4 	
		"/>
	<polygon class="st2" points="310,48.3 308.3,48.3 308.3,57.1 314.2,72.9 311.2,75.2 314.5,75.2 316.6,73.5 310.3,56.7 310.3,50.3 
		312,50.3 312,36.8 310.6,36.4 311.3,34.5 312,34.7 312,22.1 308.9,11.2 308.6,10 306.7,10.5 306.9,11.3 310,22.3 	"/>
	<polygon class="st2" points="322.9,75.2 314.5,75.2 311.2,75.2 307.4,75.2 296.2,81.6 294.9,82.4 295.9,84.1 296.4,83.8 
		307.9,77.2 310.5,77.2 312.5,77.2 323,77.2 357.4,70.8 358.1,69.1 360,69.8 359.8,70.3 361.7,70 368.3,65.9 367.5,65.4 367,64.3 
		360.9,68.1 	"/>
	<polygon class="st2" points="369.1,64 371.6,65.7 381.3,65.7 395.8,63.8 406.4,60.6 407.4,60.3 407,59.7 408.6,58.5 409.4,59.5 
		418.9,56 447.2,52.8 446.8,52.5 448.2,51 449,51.8 467.3,36.6 476.2,39.5 478.3,37.7 478.3,35.3 478.4,35 475.8,37.3 466.9,34.3 
		447.1,50.8 429.5,52.8 429.6,53.8 427.7,54 427.5,53 418.5,54.1 405.8,58.7 395.5,61.9 381.2,63.7 379.4,63.7 377.3,63.7 
		368.9,63.7 	"/>
	<path class="st2" d="M480.3,36.5h11l14.7,5.7l5.7,1.9l16,18.9l0.3-0.6l1.8,0.9l-0.3,0.5h26.1l7.4,5.1l5.7,7.7l7.7,23v8.6l-4.5,3.8
		l1.6,8.6l6.1,7.5l0.2-0.5l1.9,0.6l-0.1,0.4l15-7.1l27.4-3.6l6.7,8.5l8.8,9.9l4.4,8.4l0,0c0.5-0.6,0.9-1.1,1.4-1.7l-4-7.8l-9-10.1
		l-6.8-8.6v0.3h-2v-0.9l-27.2,3.6l-15.1,7.1l-5.6-6.9l-1.3-6.9l4.3-3.6v-9.9l-7.9-23.6l-5-6.7l-1.8,0.2l-0.2-2h0.4l-7-4.8L557,63
		l-2-0.3l0.1-0.9h-25.7l-16.1-19v0.4l-2-0.1l0.1-1.3l-4.6-1.6l-15-5.8h-11.3l-0.1,1.1v1H480.3z"/>
	<polygon class="st2" points="716.1,14.7 715.9,15.4 720.3,15.4 720.3,13.4 715.7,13.4 709,4.8 709,1.3 710.7,0.4 707,0.4 707,5.5 
		714,14.5 714.2,14 	"/>
	<polygon class="st2" points="513.3,43.3 513.3,42.9 513.6,35.9 520.7,28.8 520.7,23.3 535.9,10.3 544.6,0.4 542,0.4 534.5,8.8 
		518.7,22.4 518.7,28 511.7,35 511.3,41.8 511.3,43.2 	"/>
	<path class="st2" d="M556.9,63l0.1-0.6l1-7.3l7.9-13.1l6.6-18.2l-0.5,0.1l-0.4-2l0.4-0.1c-5.4-4.1-13.1-10.1-13.8-11.3
		c-0.6-1.1-1.8-2.1-2.7-3c-0.6-0.5-1.5-1.3-1.6-1.6c-0.1-0.2-0.3-0.5-0.5-1L553,5.5l-1.6-1.2l0.8-1.1c-0.6-0.9-1.3-1.8-2-2.8h-2.5
		c2.2,2.9,4.1,5.6,4.4,6.1c0.3,0.8,1.1,1.5,2.2,2.5c0.9,0.8,1.9,1.7,2.4,2.5c1.1,1.8,10.9,9.3,14.1,11.7l-6.5,17.7l-8.1,13.4l-1,7.5
		l-0.1,0.9L556.9,63z"/>
	<polygon class="st2" points="553,5.5 553.4,4.9 555.5,2 561.6,2 563,0.4 554.2,0.4 552.2,3.2 551.4,4.3 	"/>
	<polygon class="st2" points="604.2,2.8 606.7,0.4 603.8,0.4 603.1,1.2 604.2,1.9 	"/>
	<polygon class="st2" points="572,23.8 572.6,23.7 579.5,22.3 582.5,19.7 587.7,18.3 590.4,21.8 590.4,21.6 592.3,21.2 592.4,21.5 
		601.5,5.5 602.2,4.8 602.2,3 601.6,2.6 600,4.2 591.2,19.6 588.5,16 581.5,17.9 578.5,20.5 572.1,21.8 571.6,21.9 	"/>
	<path class="st2" d="M715.5,67.3l-0.8,0.7l3.6,4.9l-4.2,6.7c-1.1,0.9-8.7,6.9-12.3,7.9c-4.2,1.1-11.4,4.9-14.9,7.1
		c-2.1,1.3-5.2,1.5-7,1.4l-1.2,1.9c0.4,0,1,0.1,1.7,0.1c2.1,0,5.2-0.3,7.6-1.8c3.4-2.1,10.4-5.8,14.4-6.9c4.2-1.1,12.8-8,13.1-8.3
		l0.1-0.1l4.7-7.4v-1.2l-4.6-6.2c-0.3-0.6-0.7-1.7-0.6-2.1c0-0.1,0-0.1,0.1-0.1c0.6-0.3,1.3-0.9,2-1.7c-0.3-0.3-0.5-0.6-0.8-1
		c-0.1-0.2-0.2-0.5-0.3-0.8c-0.6,0.8-1.3,1.5-1.7,1.7c-0.6,0.3-1,0.7-1.2,1.3c-0.3,1,0,2.2,0.4,3l0.6-0.5L715.5,67.3z"/>
	<polygon class="st2" points="602.2,4.8 602.2,5.2 607.7,13.4 616.9,21.2 620.5,22.3 626.4,28.2 627,27.5 628.5,28.9 627.8,29.7 
		637.1,39.2 637.1,42.8 631.9,43.9 631.9,49.6 632.9,49.6 632.9,51.6 632.7,51.6 660.8,66.1 669.3,66.1 671.1,63.8 671.3,63.8 
		677,95.9 679,95.9 673,61.8 670.2,61.8 668.3,64.1 661.3,64.1 633.9,50 633.9,45.5 639.1,44.4 639.1,39.3 638.6,39.6 637.6,37.9 
		638.2,37.5 621.6,20.5 617.9,19.4 609.2,12.2 604.2,4.6 604.2,2.8 604.2,1.9 603.1,1.2 601.8,0.4 598.1,0.4 601.6,2.6 602.2,3 	"/>
	<path class="st2" d="M656.5,24.7L656,25l10.1,5.8l9.3,5.5l8.4,3l1.6,0.8l1.7-0.9l1,1.7l-0.5,0.3l1,0.5l2,2.5h8.4
		c1.1,0,6.7-3.7,16.8-10.9l0.6-0.4l-3.2-10l2.7-7.5l0.2-0.7l-1.9-0.7l-0.2,0.5l-3,8.3l3,9.3c-6.6,4.8-13.9,9.7-15.1,10.1h-7.3
		l-1.7-2.1l-5.2-2.6l-8.3-3l-9.2-5.5l-11.9-6.8l-2-21.9h-2l2.1,23.1l0.7,0.4l1.4-0.9L656.5,24.7z"/>
	<polygon class="st2" points="638.6,39.6 639.1,39.3 644,36.2 649.1,29.2 655.9,25 656.5,24.7 655.4,23 654,23.9 647.8,27.7 
		642.6,34.7 638.2,37.5 637.6,37.9 	"/>
	<polygon class="st2" points="687,39.2 685.3,40.1 680.8,42.6 680.8,58.2 683.3,65.4 699.3,73.1 708.4,73.1 714.7,68 715.5,67.3 
		714.2,65.8 713.6,66.3 707.7,71.1 699.8,71.1 684.9,64 682.8,57.9 682.8,43.8 687.5,41.2 687.9,40.9 	"/>
	<polygon class="st2" points="600.6,65.2 602.3,64.1 602.4,64.3 597.7,44.2 596.5,44.2 596.5,42.2 597.3,42.2 592.4,21.5 
		592.3,21.2 590.4,21.6 590.4,21.8 600.2,63.8 564,67.2 563.6,67.2 563.8,69.2 565.6,69 601,65.7 	"/>
	<polygon class="st2" points="607.6,39 602.7,39 600.9,42.2 597.3,42.2 596.5,42.2 596.5,44.2 597.7,44.2 602,44.2 603.9,41 
		607.2,41 614.7,44.4 627.8,29.7 628.5,28.9 627,27.5 626.4,28.2 614.2,42 	"/>
	<polygon class="st2" points="627.3,54.3 629.5,62.6 616.7,79.1 616.7,81.8 612.8,80.5 610.1,76 602.4,64.3 602.3,64.1 600.6,65.2 
		601,65.7 608.4,77 611.4,82.2 617.2,84.1 617,83.9 618.4,82.5 618.7,82.8 618.7,79.8 631.7,63.1 629.3,54.2 629.3,51.6 632.7,51.6 
		632.9,51.6 632.9,49.6 631.9,49.6 627.3,49.6 	"/>
	<path class="st2" d="M680,95.9h-1h-2l-5.2,0.1l-3.7-3.1l-8.8-10.7h-33.7l-4.4,3l0.6,0.6l-1.4,1.4l-0.1-0.1l2.8,4.4l0.4,24.5v0.9h2
		v-0.3L625.1,91l-2.6-4.1l3.8-2.6h32l8.2,10l4.5,3.8l5.3-0.1l-0.7,1.2v0.2c-0.2,0.9-0.8,3.9,0.1,5.2c0.3,0.4,0.2,2.1-0.1,3.3
		l-0.1,0.4l2.9,5.7c0.5-0.4,1.1-0.9,1.6-1.3l-2.4-4.7c0.2-1.1,0.6-3.3-0.2-4.5c-0.3-0.4-0.2-2,0.1-3.5l1.2-1.9l1.2-1.9L680,95.9z"/>
	<polygon class="st2" points="618.4,82.5 617,83.9 617.2,84.1 620.3,87.1 620.4,87.2 621.8,85.8 621.2,85.2 618.7,82.8 	"/>
	<polygon class="st2" points="422.4,6.9 421.4,7.1 427.5,53 427.7,54 429.6,53.8 429.5,52.8 424.6,15.7 423.7,15.9 423.2,14 
		424.3,13.7 422.5,0.4 420.5,0.4 421.1,5.2 422.1,5 	"/>
	<polygon class="st2" points="327.2,10.1 327.4,10.2 340.2,15.6 337.5,41.1 339.4,41.5 342.2,15.6 341.7,15.9 340.9,14.1 
		341.3,13.9 328.6,8.5 328,8.3 	"/>
	<polygon class="st2" points="341.7,15.9 342.2,15.6 346.1,13.8 371.5,6.2 372.7,5.9 372.1,3.9 371.4,4.2 345.5,11.9 341.3,13.9 
		340.9,14.1 	"/>
	<polygon class="st2" points="373.2,15.9 374,15.8 421.4,7.1 422.4,6.9 422.1,5 421.1,5.2 373.9,13.8 372.8,14 	"/>
	<polygon class="st2" points="484.7,1.5 490.4,1.5 492,0.4 483.1,0.4 484.8,0.6 	"/>
	<polygon class="st2" points="423.7,15.9 424.6,15.7 482.6,1.8 482.8,0.4 479.8,0.4 475.2,1.5 475.2,2.8 473.2,2.8 473.2,2 
		451.4,7.2 451.6,8.3 449.6,8.6 449.4,7.7 424.3,13.7 423.2,14 	"/>
	<polygon class="st2" points="451.6,8.3 451.4,7.2 450.1,0.4 448.1,0.4 449.4,7.7 449.6,8.6 	"/>
	<polygon class="st2" points="475.2,2.8 475.2,1.5 475.2,0.4 473.2,0.4 473.2,2 473.2,2.8 	"/>
	<polygon class="st2" points="510.2,172.6 516.5,167.8 516.3,167.9 515.6,166 517,165.5 517,138.7 506.4,125.2 504.6,125.7 
		504.1,123.8 504.6,123.6 499.2,119 490.9,112.5 480.8,92.6 480.8,87 480.4,87.3 478.8,88.5 478.8,93 488.9,113.1 489.2,112.7 
		490.9,113.7 490.4,114.7 497.9,120.6 504.9,126.5 515,139.4 515,166.5 508.4,171.4 505.8,181.3 502.7,187.7 504.3,188.9 
		507.6,182.1 	"/>
	<polygon class="st2" points="478.4,35 478.3,35.3 478.3,37.7 478.3,41.1 480.5,46.9 470.1,69.4 470.9,69.6 470.3,71.5 469.9,71.4 
		476.4,83.9 478.8,85.4 478.8,86 479.2,85.7 480.8,84.6 480.8,84.3 478,82.5 471.7,70.6 482.6,47 480.3,40.7 480.3,36.5 480.3,35.5 
		480.5,34.5 484.7,1.5 484.8,0.6 483.1,0.4 482.8,0.4 482.6,1.8 	"/>
	<polygon class="st2" points="498.3,193.6 498.3,195.6 495.7,195.6 495.1,196.2 492.3,212.4 489.2,219.5 482.4,226 482.4,234.2 
		486.2,244.2 492.4,252.8 496.9,261.5 499.7,262.5 494.2,251.9 488,243.3 484.4,233.8 484.4,226.8 490.9,220.7 494.2,213.1 
		496.9,197.2 500.7,193.7 499.1,192.5 497.9,193.6 	"/>
	<path class="st2" d="M444.9,198.4h1l0.2,0.1c0,0,0.3,0.2,0.6,0.4l9.1-31.8l1-5.3l-1.7-1.6l-1.2,6.4L444.9,198.4z"/>
	<path class="st2" d="M463.2,134.4l-0.5,0.2l-0.7-1.9l0.6-0.2l-3.5-3.9l-2.2-6.6l-0.1-0.1c-3.1-4-6.6-8.6-6.9-9.3
		c-0.3-0.9-1.6-2.8-2.3-3.8l-0.6,0.8l-0.8,0.7c0.8,1.1,1.7,2.4,1.9,3c0.4,1.1,5,7.1,7.1,9.8l2.2,6.7l3.9,4.3l-3.6,15.5l-1,4l1.7,1.6
		l1.2-5.1L463.2,134.4z"/>
	<polygon class="st2" points="373.5,105.1 354.4,105.1 352.9,107.7 342.9,107.7 344.7,106.9 359.8,70.3 360,69.8 358.1,69.1 
		357.4,70.8 343.1,105.4 338.2,107.7 335.3,109 333.8,109.7 335.9,109.7 338.8,109.7 354.1,109.7 355.6,107.1 363.4,107.1 
		363.3,106.3 365.2,106 365.4,107.1 372.4,107.1 374.1,109.7 388.4,109.7 388.4,107.7 375.2,107.7 	"/>
	<polygon class="st2" points="428.8,99 427.9,99 428.1,99.7 426.2,100.3 425.8,99 405.9,99 391.3,104.9 390.4,106 390.4,109.1 
		392.5,106.6 406.3,101 428.4,101 436.3,104.3 444.6,108.9 445.6,108 446.1,107.4 437.3,102.5 	"/>
	<path class="st2" d="M327,230.2v4.3l9.3,7.2l4,3.2l4.8,5.2l4.1-4.6h4.1l0.2-0.2c-0.1-0.7-0.3-1.3-0.4-1.9l2-0.4
		c0,0.1,0,0.2,0.1,0.5l6.8-7.4l2.7-1.1l30.9,16.4h5.1l5.1-2l7.4-10.5v-0.8l-1.7-3.4l-0.3-0.1v3.7l-6.7,9.5l-4.2,1.7h-4.2l-29.9-15.9
		l-0.5,0.9l-1.7-1l0.2-0.3l-3.2,1.3l-8.4,9.1h-4.3l-3.3,3.6l-3.3-3.6l-4.2-3.4l-8.5-6.6v-2.7l2.2-3.7v-4.3v-0.4h-2v2.3v1.8
		L327,230.2z"/>
	<path class="st2" d="M430.1,209.5L411,229.7v2.7l1.7,0.9l0.3,0.5v-3.2l18.6-19.7l1.5-2.6l12.6-7.7c-0.1-0.1-0.2-0.1-0.3-0.2h-3.3
		l-10.5,6.4L430.1,209.5z"/>
	<polygon class="st2" points="439.6,115.5 446.2,110.2 447,109.5 447.6,108.7 451.4,104 456.1,94.7 462.8,87.5 468,87.5 472.1,90.1 
		476.7,90.1 478.8,88.5 480.4,87.3 480.8,87 503.3,71.6 522.4,74.6 522.4,73.7 524.4,73.7 524.4,74 529.5,63.8 529.8,63.3 528,62.4 
		527.7,63 522.8,72.6 502.8,69.5 480.8,84.6 479.2,85.7 478.8,86 476.1,88.1 472.7,88.1 468.5,85.5 461.9,85.5 454.6,93.4 
		449.7,102.8 446.1,107.4 445.6,108 444.6,108.9 437.6,114.5 437.6,130.3 431.6,139.9 431.6,139.9 433.4,140.8 439.6,130.8 	"/>
	<polygon class="st2" points="419.4,89.8 424.9,96.3 425.8,99 426.2,100.3 428.1,99.7 427.9,99 426.6,95.3 421.2,88.8 412.9,64.2 
		409.4,59.5 408.6,58.5 407,59.7 407.4,60.3 411.1,65.2 	"/>
	<polygon class="st2" points="449,51.8 448.2,51 446.8,52.5 447.2,52.8 466.6,70.3 469.9,71.4 470.3,71.5 470.9,69.6 470.1,69.4 
		467.6,68.6 	"/>
	<polygon class="st2" points="468.4,130.3 462.6,132.4 462,132.7 462.7,134.5 463.2,134.4 468.8,132.3 480.5,132.3 490.4,114.7 
		490.9,113.7 489.2,112.7 488.9,113.1 479.3,130.3 	"/>
	<path class="st2" d="M572.8,144.5l0.6-1.2l-27.9-27.2l-6.7-5.9l-9.2-8l-5.3-5.6V74v-0.2h-2v0.9v22.7l5.9,6.2l9.2,8.1l2.5,2.2
		l1.8-0.5l0.5,1.9l-0.5,0.1l2.3,2.1l28.6,27.8v4.9l9,3.2l0.3,1.2l-3.6,7.7l-7,7c-6,0.2-12.6,0.2-13.4,0c-1-0.3-12-4.6-19.1-7.4
		l-10.1-0.9l-11.8,4.3l-1.3,0.5l0.7,1.9l0.1-0.1L529,163l9.3,0.8c2.4,0.9,17.8,7.1,19.2,7.4c0.6,0.1,2.5,0.2,4.8,0.2
		c3.7,0,8.3-0.1,9.6-0.2h0.4l7-7l-0.7-0.7l1.4-1.4l0.5,0.5l3.7-7.9l-0.7-3l-8.7-3.1v-3.7l-0.1,0.2L572.8,144.5z"/>
	<polygon class="st2" points="542.3,115.4 541.8,113.4 540,113.9 504.6,123.6 504.1,123.8 504.6,125.7 506.4,125.2 541.8,115.5 	"/>
	<polygon class="st2" points="573.4,143.3 572.8,144.5 574.6,145.5 574.7,145.2 578.7,137.7 581.6,128.6 581.7,128.2 579.8,127.6 
		579.6,128.1 576.8,136.9 	"/>
	<path class="st2" d="M609,177.7l-6.4-7.2l-0.3,0.6l-1.8-0.8l0.3-0.6h-5.1l-2.6-3.7h-9.6l-3.1-3.1l-0.5-0.5l-1.4,1.4l0.7,0.7
		l3.4,3.5h7.1l2.1-1.8l1.3,1.5l-0.8,0.7l2.3,3.3h6.4l6.3,6.9l6.6,14.8l2.5,10.5c0.1-0.3,0.1-0.6,0.2-0.9c0.3-1.1,0.5-2.3,0.8-3.4
		l-1.6-6.8L609,177.7z"/>
	<polygon class="st2" points="555.3,201.8 558.3,198.8 572.4,194 583.5,182.9 585.7,174 592.4,168.4 593.2,167.7 591.9,166.2 
		589.8,168 583.9,172.9 581.7,181.9 571.3,192.2 557.2,197 553.6,200.7 550.2,209.4 548,222.2 548.3,222.6 549.8,223.7 552.1,210 	
		"/>
	<path class="st2" d="M622.1,159h-9.6l-3.5,3.7l-6.8,4l-1.3,3l-0.3,0.6l1.8,0.8l0.3-0.6l1.1-2.4l6.4-3.8l3.2-3.4h6.7v2.8l7.4,2.8
		c0.5-0.6,0.9-1.1,1.4-1.6l-6.8-2.6L622.1,159L622.1,159z"/>
	<polygon class="st2" points="365.2,106 363.3,106.3 363.4,107.1 368,144.4 370,144.3 365.4,107.1 	"/>
	<path class="st2" d="M501.7,263.3l-2-0.7l-2.8-1.1l-3-1.1c-0.5-0.6-1.8-2-3.5-2.7c-1.4-0.6-6.2-3.7-8.2-5l-5.4-7.8l-8.3-4.7
		L456.3,216c0.7-3.9,1.5-10.3-0.5-11.5c-0.1-0.1-0.3-0.2-0.4-0.3l-2.2,0.6l-0.5-1.9l0.4-0.1c-2.2-1.4-5-3.1-6.2-3.8
		c-0.4-0.2-0.6-0.4-0.6-0.4l-0.2-0.1h-1h-4l-1.3-5.7l-6.2-9.8l-5.7-2.5c-2.2-1.6-4.8-3.8-5.1-4.5c-0.3-1.8-5.3-13.7-9.6-23.7v-6.2
		l-2,0.2v6.4l0.1,0.2c3.3,7.7,8.4,19.9,9.4,22.8l0.7-0.4l0.9,1.8l-0.8,0.4c0.7,0.9,2.2,2.3,5.4,4.7l5.5,2.4l5.7,9l1.6,6.9h2.8h3.3
		c0.1,0,0.2,0.1,0.3,0.2c1.8,1.1,7.5,4.7,9.1,5.6c0.6,0.7,0.4,5.2-0.4,9.8l-0.1,0.3l12.9,25.3l8.4,4.8l4.7,6.7l0.9-0.6l1.1,1.7
		l-0.5,0.4c0.8,0.5,2.2,1.5,3.7,2.4l0.3-0.8l1.9,0.7l-0.4,1.1c1.1,0.7,2.1,1.2,2.7,1.5c1.6,0.6,2.8,2.2,2.8,2.3l0.2,0.2l8.1,3
		l14.7,8.1l4.4,1.4c0.3-0.6,0.6-1.2,0.9-1.8l-4.4-1.4L501.7,263.3z"/>
	<polygon class="st2" points="407,118.3 402.7,108.5 397.8,108.1 390.4,110 390.4,109.1 390.4,106 390.4,103.2 384.4,86.2 
		374.3,67.5 371.6,65.7 369.1,64 368.9,63.7 365.8,57.4 353.3,46.1 343.1,42.3 339.4,41.5 337.5,41.1 321.2,37.8 312,34.7 
		311.3,34.5 310.6,36.4 312,36.8 320.6,39.7 342.5,44.2 352.3,47.8 364.2,58.6 367,64.3 367.5,65.4 368.3,65.9 372.7,68.9 
		382.6,86.9 388.4,103.6 388.4,107.7 388.4,109.7 388.4,112.6 398,110.1 401.3,110.4 405.2,119.2 411,130.4 411,140.2 413,140 
		413,129.9 	"/>
	<polygon class="st2" points="466.1,200.3 480.1,195.6 495.7,195.6 498.3,195.6 498.3,193.6 497.9,193.6 479.7,193.6 465.3,198.4 
		461.9,200.3 453,202.8 452.6,202.9 453.1,204.8 455.4,204.2 462.6,202.2 	"/>
	<polygon class="st2" points="368.4,220.1 370.4,222.5 363.9,233.2 363.8,233.5 365.5,234.5 366,233.6 372.9,222.2 370.4,219.4 
		370.4,216.5 382.5,204.4 381.9,203.6 381,203 368.4,215.7 	"/>
	<polygon class="st2" points="401.1,182.8 382.4,201.6 383.3,202.2 383.9,202.9 402.2,184.5 413.8,181.1 421.2,177.4 422.1,177 
		421.2,175.2 420.4,175.5 413.1,179.2 	"/>
	<path class="st2" d="M441.9,259.5l-10.5-7.6l-11.3-4.1l-7.1-14.1l-0.3-0.5l-1.7-0.9l-6.3-3.1c-1-0.6-3.7-2.4-4.5-3.4
		c-0.2-0.3,0.7-1.6,2-2.7l0.4-0.3v-8.7l-7-7.6l-10.5-2.2l-1.2-1.5l-0.6-0.7l-0.9-0.6l-1.5-1c-0.8-1.6-2.5-5.1-2.8-6.2
		c-0.4-1.5-6.6-7.6-10.5-11.2l-2.3-8h-3h-1v2h1h1.6l2.1,7.1l0.2,0.2c4.6,4.4,9.7,9.5,10.1,10.4c0.4,1.5,2.8,6.3,3,6.9l0.1,0.2
		l1.6,1.1l0.9,0.6l0.6,0.7l1.6,1.8l10.6,2.2l6,6.5v6.9c-1.1,0.9-3.4,3.3-2,5.1c1.2,1.6,4.7,3.7,5.2,4l7.2,3.6l0.3,0.1l1.7,3.4
		l4.5,8.9l0.5-0.5l1.4,1.4l-1,1l0.2,0.5l11.7,4.2l0.7,0.5l0.2-0.7l1.9,0.6l-0.4,1.3l8.5,6.1h29.6l10.6-6.8l0.5-0.4l-1.1-1.7
		l-0.9,0.6l-9.8,6.3h-28.3V259.5z"/>
	<path class="st2" d="M344.3,283.6l16,3.2l0.2-1.3l-1.4-1.3l1.4-1.4l0.4,0.4l1.6-9.5h-1.2c-0.1,0-1.6,0-1.6-2.7
		c0-3.5-3.9-23.8-4.6-27.3c0-0.3-0.1-0.4-0.1-0.5l-2,0.4c0.1,0.6,0.2,1.3,0.4,1.9c1.7,8.6,4.3,22.8,4.3,25.5s1.3,4,2.4,4.5l-1.5,9.1
		l-13.7-2.7l-14.3-5.5l-12-6l-0.6-0.3l-0.9,1.8l1.4,0.7l11.2,5.6L344.3,283.6z"/>
	<path class="st2" d="M482,322.5l-20.1-5.3l17.2-33.3l3.4-14.2l4.5-11.6l0.4-1.1l-1.9-0.7l-0.3,0.8l-4.6,12l-3.3,14.1L459.9,317h0.6
		v2h-0.2l20.9,5.5l1.9,1c0.3-0.3,0.6-0.7,0.8-0.9l1.5,1.3c-0.1,0.1-0.3,0.3-0.5,0.6l10.7,5.7l6.1,2.4c0.5-0.6,1-1.1,1.5-1.6
		l-6.7-2.7L482,322.5z"/>
	<polygon class="st2" points="396.6,267.4 388,273.5 382.7,273.5 376.7,280.3 372,293.9 360.9,283 360.5,282.7 359.1,284.1 
		360.5,285.4 372.8,297.5 372.9,297.3 371.8,296.5 373,294.9 373.6,295.3 378.5,281.3 383.6,275.5 388.6,275.5 397.8,269 402,265.1 
		418.4,249 419.4,248 418,246.6 417.5,247.1 400.6,263.7 	"/>
	<polygon class="st2" points="417.8,301 416.9,300.8 417.3,298.9 418.4,299.1 432.8,255.3 433.2,254 431.3,253.4 431.1,254.1 
		414.5,304.6 404.8,310.3 399.1,313.8 389.7,313.8 380,304.4 376.4,302.8 376.4,297.3 373.6,295.3 373,294.9 371.8,296.5 
		372.9,297.3 374.4,298.3 374.4,303.1 374.6,302.8 376.1,304.1 375.7,304.7 378.9,306.1 388.9,315.8 399.7,315.8 403.1,313.7 
		404.4,310.7 406.2,311.6 406.1,311.8 416.2,305.9 	"/>
	<path class="st2" d="M445.9,314c-1.5-1.6-4.6-4.9-5.8-5.3c-0.7-0.3-4.2-3.3-7.1-6l-0.2-0.2l-14.4-3.4l-1.1-0.3l-0.5,1.9l0.9,0.2
		l14.1,3.3c2.1,1.9,6.5,5.9,7.6,6.2c0.6,0.3,3.2,2.8,5.1,4.9l0.2,0.2l9.3,3.1h6.3h0.1v-2h-0.6h-5.5L445.9,314z"/>
	<polygon class="st2" points="263.6,278.1 264.8,278.4 266.4,275 269,263.8 271,261.1 271.9,258.9 271.9,258.9 270.1,258.1 
		269.5,259.5 269.4,260 267.1,262.9 264.5,274.2 260.8,282 259.4,286.6 255.8,290.2 252,290.2 246.5,287.2 240.2,287.2 232.7,272.8 
		223.4,272.8 222.2,272.8 222.2,274.8 222.6,274.8 231.5,274.8 238.9,289.2 246,289.2 251.5,292.2 253,292.2 253,291.2 255,291.2 
		255,292.2 256.6,292.2 261.1,287.6 262.7,282.8 263.9,280.2 263.1,280 	"/>
	<path class="st2" d="M327.5,300.8l11.5,5.8l7.7,3.2l5.8,3.5l4.4,2.7l0.4-0.1c1.3-0.3,8.1-1.6,9.6-2.6c0.2-0.1,0.3-0.2,0.4-0.2
		l0.5,1.5l7.7-9.8l0.5-0.6l-1.6-1.2l-0.2,0.3l-6.2,7.9c-0.6-0.2-1.4,0-2.2,0.6c-0.9,0.6-5.4,1.7-8.5,2.3l-3.8-2.3l-5.9-3.5l-7.8-3.3
		l-11.5-5.7l-4.3-2l-3.3-2.8l-1.1-0.9l-1.3,1.5l0.5,0.4l4,3.4L327.5,300.8z"/>
	<polygon class="st2" points="284,297.2 276.6,290.5 273.3,285 270.2,279.9 264.8,278.4 263.6,278.1 263.1,280 263.9,280.2 
		268.9,281.7 271.6,286.1 274.9,291.7 283.2,299.2 300.9,299.2 303.6,302.6 304.1,303.2 305.7,301.9 304.8,300.9 301.8,297.2 	"/>
	<polygon class="st2" points="336.4,340.5 352,351.3 352.9,350.3 353.5,349.9 337.4,338.8 325.7,333.9 292.2,322.9 291,322.5 
		290.4,324.4 291.1,324.7 310,330.8 310,330.1 312,330.1 312,331.5 325,335.8 	"/>
	<path class="st2" d="M408.4,413.5l-7.1-8.6l-2-3v-15.3h-1v-2h1v-22.9l-17.9-0.8v2.5l-1.3,1.4l-7-5.8l-17.5-7.9l-1.3,1l-0.4,0.4
		l18.1,8.2l8.4,6.9l3.1-3.3v-1.2l13.9,0.6v38.9l2.4,3.6l7,8.4l2.6,8.5l0,0c0.2-0.1,0.4-0.1,0.6-0.2c0.4-0.1,0.7-0.3,1.1-0.5
		c0.1,0,0.2-0.1,0.3-0.1l-0.2-0.2L408.4,413.5z"/>
	<polygon class="st2" points="353.8,352.3 354.2,351.9 355.5,350.9 364.1,344.7 376,335.6 382,330.9 383.7,335.2 386.6,339.9 
		395.9,339.9 396.6,337.9 395.5,337.1 396.6,335.5 397.2,335.9 403.3,318.2 406.1,311.8 406.2,311.6 404.4,310.7 403.1,313.7 
		401.4,317.5 394.4,337.9 387.7,337.9 385.5,334.4 382.8,327.7 374.7,334.1 362.9,343.1 353.5,349.9 352.9,350.3 352,351.3 341,363 
		328.2,374.9 329.6,376.3 342.4,364.4 	"/>
	<path class="st2" d="M314,388.1v13.7l-11.2,10c0.2,0.7,0.4,1.4,0.6,2.1l12.6-11.2V389l12.1-11.3l-1.4-1.4L314,388.1z"/>
	<path class="st2" d="M398.3,426.9l-3-1.2l-26.2-14l-6.9-3.6l-32.7-31.7l-1.4-1.4l-9.8-9.6l-4.1-3l-2.2-2v-28.8v-1.4h-2v0.7v30.3
		l2.9,2.6l1.4,1l1.1-0.8l1.2,1.6L316,366l1,0.7l9.7,9.4l1.4,1.4l32.8,31.9h0.1l1.5-0.9l1,1.7l-0.5,0.3l5.1,2.7l26.3,14.1l3.7,1.5
		C398.2,428.3,398.3,427.6,398.3,426.9z"/>
	<polygon class="st2" points="362.6,408.7 361.1,409.6 357.7,411.6 357.7,414.8 355.6,418.5 349.4,417.6 346.1,408.6 337.8,408.6 
		332.4,416 321.3,428.6 320.7,429.4 323.2,429.4 334,417.2 338.9,410.6 344.7,410.6 348,419.4 356.6,420.7 358.6,417.3 357.8,415.4 
		359.6,414.6 359.7,414.8 359.7,412.7 363.1,410.7 363.6,410.4 	"/>
	<polygon class="st2" points="357.8,415.4 358.6,417.3 359.2,418.8 361.5,429.4 363.6,429.4 361.2,418.3 359.7,414.8 359.6,414.6 	
		"/>
	<path class="st2" d="M218.9,279.1l0.2-0.1l-0.9-1.8l-3.5,1.9l-8.7,4.6v24.5c0.6,0.5,1.3,1,2,1.5v-24.8L218.9,279.1z"/>
	<path class="st2" d="M97.7,389.6v1h11.9v-2h1v-8.4l3.5-2.3l5.3-5.5l1.9-7l8.7-10.9l3-2.7h12l-0.3-0.4l1.6-1.1l0.4,0.5l1.7-2.7
		l14.6-17c0.5-0.2,1-0.3,1.4-0.4l-0.3-0.9l1.9-0.6l0.3,1c1.9-0.5,3.5-0.9,3.9-0.8c1.1,0.5,2.6-0.6,4.3-3.2c3.2-0.2,8.2-0.7,9.4-1.8
		c0.2-0.2,0.5-0.4,0.9-0.5v-1.5h2v0.7c0.4-0.2,0.9-0.3,1.3-0.4c0.8-0.3,1.6-0.5,2.2-0.8c1.6-0.6,3.1-2.1,3.7-2.8l6.6,0.6l4.8-4.1
		c-0.2-0.2-0.4-0.3-0.6-0.5c-0.3-0.2-0.7-0.5-1-0.7l-3.8,3.2l-6.8-0.6l-0.3,0.4c-0.5,0.6-2,2.1-3.3,2.7c-0.5,0.2-1.3,0.5-2.1,0.7
		c-2,0.6-4,1.3-4.9,2.1c-0.2,0.1-0.7,0.3-1.4,0.4l0.3,0.7l-1.8,0.9l-0.6-1.2c-1.6,0.2-3.5,0.4-5.2,0.5h-0.5l-0.3,0.4
		c-0.8,1.3-1.9,2.5-2.4,2.8c-1.1-0.2-4,0.4-8.7,1.9l-0.3,0.1l-2.3,2.7l0.5,0.1l-0.2,2l-1.9-0.2l-11.1,13l-1.9,3h-11.4v1h-2v-0.4
		l-3,2.8l-8.1,10l0.8,0.7l-1.4,1.5l-0.4-0.4l-1.6,6.1l-4.7,4.9l-4.3,2.9v9.5H90l-2.2,3h-4.2l0.1,0.9l-2,0.3l-0.2-1.1H78l-16.9,9.5
		l0.5,0.2l-0.9,1.8l-0.5-0.3v2.7l3,9.8l3.8,6.3l-6,7.7h2.5l4.8-6.2l-0.8-0.7l1.3-1.5l0.1,0.1l-3.9-6.5l-2.9-9.2v-2.6l16.4-9.2h10.1
		l2.2-3h4.8v-1H97.7z"/>
	<path class="st2" d="M217.9,337.5l-7.6,5.8l-6.5,10.5l-1.6,2.1v2.7l0.2,0.3l3-3.9l6.4-10.3l7.4-5.7l3.7-5.3l3.2-2.8
		c-0.7-0.2-1.5-0.4-2.3-0.7l-2.3,2L217.9,337.5z"/>
	<polygon class="st2" points="181.3,380.1 184.3,377.5 184.3,370.1 194.1,364 199.8,362.3 201.1,360.7 200.2,359.1 200.2,358.5 
		198.6,360.6 194.3,361.9 194.6,362.7 192.7,363.4 192.4,362.7 188.7,365 189,365.1 188.8,367 185.9,366.7 182.3,369 182.3,376.6 
		179.3,379.2 179.3,384.8 173.9,386.8 174.4,388.8 181.3,386.2 	"/>
	<path class="st2" d="M237.5,318.8c0.7-0.1,1.2-0.5,1.5-1.1c0.7-1.3,0-3.5-0.5-4.7l8.8-7.8l7.7-7.6v-5.3v-1h-2v1v4.5l-7.1,7
		l-9.8,8.8l0.3,0.7c0.8,1.6,1.1,3.4,0.7,3.7c-1.9,0.3-5.9,5.1-8.6,8.5c0.6,0.2,1.3,0.5,1.9,0.8C233.5,322.4,236.5,319,237.5,318.8z"
		/>
	<path class="st2" d="M467.3,343.1c-2.1,1.6-6.6,12.4-5.9,14.9c-0.1,1.4-3.7,9-7.3,15.7l-5.7,7l-2.7-5.1l-12.8-10.4l-11-6.1l-9-5.1
		l-9.2-7.2l3-4.5l-9.5-6.4l-0.6-0.4l-1.1,1.7l1.1,0.7l7.4,5l-2.9,4.4l10.8,8.3l9.2,5.3l4.9,2.8l0.1-0.7l2,0.3l-0.2,1.4l4,2.2
		l12.4,10l3.9,7.5l7.6-9.5l0.1-0.2c7.8-14.8,7.7-16.8,7.4-17.4c-0.1-1.7,3.4-11.2,5.3-12.6c2.1-1.6,13.5-15,16.4-18.4
		c0.2-0.3,0.4-0.5,0.5-0.6l-1.5-1.3c-0.2,0.3-0.5,0.6-0.8,0.9C478.6,330.6,468.9,341.9,467.3,343.1z"/>
	<polygon class="st2" points="426,362.9 425.9,363.6 425,369.6 428,373 428,377.9 424.3,384.5 399.3,384.5 398.3,384.5 398.3,386.5 
		399.3,386.5 425.5,386.5 430,378.4 430,372.2 427.1,368.9 427.7,364.7 428,363.2 	"/>
	<path class="st2" d="M280,367.5l-5.5,3.5c0.7,0.3,1.5,0.7,2.1,1l4-2.5h30.7l4.7-3.4l0.6-0.4l-1.2-1.6l-1.1,0.8l-3.7,2.6L280,367.5
		L280,367.5z"/>
	<path class="st2" d="M137,324.9l-3.2-4.3l-3.2-7.9l-0.4-1.8c-0.2-0.9,1.1-4.8,2.5-7.9l7.6-11.2l3.3-2.8l0.3-0.2l-1.3-1.5l-1.3,1.1
		l-2.4,2l-8,11.6l-0.1,0.2c-0.7,1.6-3.1,7.2-2.7,9.2l0.4,1.9l2.9,7.2l1.2-0.2l0.4,2l-0.6,0.1l2.9,3.9l6.9,6.1l15.5,1.5l1.9,0.2
		l0.2-2l-0.5-0.1l-16.3-1.6L137,324.9z"/>
	<path class="st2" d="M159.4,285.3l19.8,38.2l0.6,1.2l1.8-0.9l-0.3-0.7L163,287.8c-1.5-0.6-2.4-1.3-3-2.2c-0.2-0.4-0.4-0.8-0.5-1.1
		l-0.3,0.2L159.4,285.3z"/>
	<path class="st2" d="M96.3,318.3l0.6-0.6l1.5,1.4l-0.4,0.4c2.4,0.4,7.7,0,8.9-0.1l21.3,6.9v-0.7h2v-2.9l2.3-0.5l0.6-0.1l-0.4-2
		l-1.2,0.2l-3.3,0.7v3.1l-21.1-6.8h-0.2c-2.7,0.2-7.4,0.4-8.9,0.1c-0.5-0.9-0.3-5.5,0.5-10.4c0-0.2,0.1-0.4,0.1-0.5l-2-0.3
		c-0.1,0.6-0.2,1.2-0.3,1.8C95.6,313.3,95.6,316.7,96.3,318.3z"/>
	<polygon class="st2" points="130.3,337.7 130.2,325.6 130.2,325.6 128.2,325.6 128.2,326.3 128.3,339.7 131.6,339.7 131.6,350.3 
		131.6,350.7 133.6,350.7 133.6,349.7 133.6,337.7 	"/>
	<polygon class="st2" points="20.7,428.2 20.7,424 16.5,424.3 16.5,425.3 14.5,425.3 14.5,424.4 1.1,425.1 0.3,426 0.3,429.2 
		2.1,427 18.7,426.1 18.7,429.4 28.8,429.4 28.8,428.2 	"/>
	<polygon class="st2" points="61.6,401.3 61.2,401 56.1,398.4 54.4,391.6 52.2,387.9 52.2,381.8 48.6,377.4 48.4,378 46.6,377.2 
		47.4,375.1 45.4,370.6 41.4,363.1 41,363.6 41.8,364 40.7,365.7 39.7,365.1 37.5,367.5 34.5,372.8 30.8,376.9 28,381.6 24.5,384.9 
		14.3,384.9 10.2,380.9 0.3,379.7 0.3,381.7 9.3,382.8 13.5,386.9 23.9,386.9 23.9,385.9 25.9,385.9 25.9,386.3 29.5,382.9 
		32.4,378.2 36,374.1 39,368.8 41,366.6 43.6,371.5 46.6,378 50.2,382.6 50.2,388.4 52.5,392.2 53,394.2 54.2,394.2 54.2,396.2 
		53.5,396.2 54.4,399.8 60.2,402.8 60.7,403.1 	"/>
	<polygon class="st2" points="102.4,350 100.2,342.7 95,334.7 92.8,330.8 90,328.2 89.3,328.9 87.9,327.5 88.5,326.8 78.9,317.6 
		71,311.4 65.9,310.3 64.8,308.6 64.6,308.4 62.9,309.5 63.2,309.9 64.6,312 70.2,313.3 73.9,316.2 74.4,315.5 76.1,316.5 
		75.5,317.5 77.6,319.1 91.1,331.9 93.3,335.8 98.4,343.4 100.7,351.5 101.2,351.7 103.3,350.7 104.1,352.5 103.7,352.7 
		107.3,354.2 119.3,365.2 119.7,365.6 121.1,364.1 120.3,363.4 108.3,352.5 	"/>
	<polygon class="st2" points="96.9,317.7 96.3,318.3 88.5,326.8 87.9,327.5 89.3,328.9 90,328.2 98,319.5 98.4,319.1 	"/>
	<polygon class="st2" points="41.8,364 41,363.6 36.6,360.6 32.4,359.3 26.6,355.8 25.6,356.7 24.2,355.2 24.9,354.5 19.1,348.7 
		17.1,344.9 16.4,343.5 14.6,344.4 14.9,344.9 17.4,349.7 24.2,356.6 31.4,361.1 35.6,362.4 39.7,365.1 40.7,365.7 	"/>
	<polygon class="st2" points="0.3,347.3 3.3,351.3 5.5,354.7 5.5,364.6 0.3,375.4 0.3,375.5 0.3,379.2 2.1,376.4 7.5,365.1 
		7.5,354.1 5,350.1 1,344.9 0.3,344 	"/>
	<path class="st2" d="M54.2,394.2h-1.3H31.3l-0.3,0.6c-0.6,1.5-1.7,3.2-2.3,3.3c-0.4,0.1-1.4,0.1-2.8,0.1v1h-2v-1
		c-2.7,0-5.9-0.1-8.4-0.1h-1l0,0h1v2h-1v24.3v0.9h2v-1.1v-24.1c3,0.1,11.1,0.2,12.5,0c1.7-0.3,3-2.6,3.6-3.9h1.3v-1h2v1h17.6h0.8v-2
		H54.2z"/>
	<polygon class="st2" points="25.9,399.2 25.9,398.2 25.9,386.3 25.9,385.9 23.9,385.9 23.9,386.9 23.9,398.2 23.9,399.2 	"/>
	<polygon class="st2" points="15.5,398.1 14.5,398.1 7.1,398.2 7.1,401.2 0.3,401.2 0.3,403.2 9.1,403.2 9.1,400.2 14.5,400.1 
		15.5,400.1 	"/>
	<polygon class="st2" points="33.9,395.2 33.9,396.2 33.9,411.2 36.9,411.2 36.9,425.6 34.4,428.2 29.6,428.2 28.8,428.2 
		28.8,429.4 36.1,429.4 38.9,426.5 38.9,409.2 35.9,409.2 35.9,396.2 35.9,395.2 	"/>
	<path class="st2" d="M39.1,331.6l0.8-0.9l1.5,1.3l-0.5,0.6l2.3,1.2l6.2,5.9l9.6,4l3.7,8.7l0.3-0.5l1.7,1.1l-0.6,0.9l6.2,4.9
		l7.2,3.2l-0.1-0.5l2-0.3l0.2,1.1c3.7,0,8.8-0.3,9.9-1.6c0.7-0.8,5.5-3.8,8.7-5.6l5.6-2.6l0.4-0.2l-0.8-1.8l-2.1,1l-4,1.8
		c-1.4,0.8-8.2,4.7-9.3,6c-0.7,0.6-5.4,0.9-9.3,0.9l-7.2-3.2l-6.7-5.3l-3.8-8.9l-0.2,0.4l-1.7-1l0.4-0.8l-8.8-3.7l-6-5.7l-9.1-5
		l-3.1-1.2l-1.2-0.5l-0.7,1.9l0.8,0.3l3.4,1.3L39.1,331.6z"/>
	<polygon class="st2" points="58.8,342.5 60.6,343.5 60.8,343 75.5,317.5 76.1,316.5 74.4,315.5 73.9,316.2 59.3,341.7 	"/>
	<polygon class="st2" points="35.7,338.7 40.9,332.6 41.4,332 39.9,330.7 39.1,331.6 34,337.7 29.8,350.2 24.9,354.5 24.2,355.2 
		25.6,356.7 26.6,355.8 31.6,351.3 	"/>
	<path class="st2" d="M57,365.1c0.2-1,1.6-3.2,2.4-4.3l4.6-6.7l0.6-0.9l-1.7-1.1l-0.3,0.5l-4.9,7.2c-0.2,0.3-2.3,3.3-2.8,5
		c-0.2,0.8-3.2,4-5.8,6.5l-0.2,0.1l-1.6,3.8l-0.9,2.1l1.8,0.8l0.2-0.5l2.1-5C52.3,370.9,56.6,366.7,57,365.1z"/>
	<polygon class="st2" points="79.3,361.3 77.3,361.6 77.4,362.2 81.5,391.6 81.6,392.7 83.6,392.4 83.5,391.6 79.4,362.5 	"/>
	<path class="st2" d="M102.7,423.7l0.1-0.2l-6.3,5.9h2.9l3.6-3.4c0.2,1,0.5,2.3,0.8,3.4h2.1c-0.4-1.5-0.9-4-1.2-5.3l-0.1,0.3
		L102.7,423.7z"/>
	<polygon class="st2" points="67.6,422.5 68.3,423.2 74.8,428.7 81,429.4 90.2,429.4 89.1,428.2 75.6,426.8 69,421.1 68.9,421 	"/>
	<path class="st2" d="M279.6,381.1l-16.6,17l-7.3-2.1h-7.2l-10.9,5.3l-11,5.1v9.9l-12.1-1.7v0.9h-2v-1.1l-1.9-0.3L199.2,427l0.7,0.8
		l-1.5,1.3l-0.6-0.7l-0.3,0.4l-0.1,0.7h2.2l11.8-13.3l15.8,2.2l-0.2-0.2l1.2-1.6l0.4,0.3v-9.2l9.8-4.5l10.5-5.1h6.3l7.1,2v-0.7
		l2-0.1v0.4l16.7-17.1C280.6,382,280.1,381.6,279.6,381.1z"/>
	<polygon class="st2" points="262.4,399.3 262.4,400 263.2,414 258.8,414 260.7,429.4 262.7,429.4 261,416 265.3,416 264.4,399.6 
		264.4,399.2 	"/>
	<polygon class="st2" points="130.1,411.6 130.5,410.9 125.7,408.5 115.4,411.2 106.5,416 106.9,417 105,417.7 104.9,417.4 
		102.8,423.4 102.7,423.7 104.6,424.3 104.7,424.1 106.8,418.1 116,413.1 125.5,410.6 130.2,413 135.8,420.7 144,426.1 148.4,429.4 
		150.9,429.4 151,428.7 145.1,424.5 137.2,419.2 132.1,412.1 131.8,412.7 	"/>
	<polygon class="st2" points="200,427.7 199.2,426.8 197,424.3 192.9,420.7 190.6,420.7 190.6,421.7 188.6,421.7 188.6,420.7 
		187.4,420.7 178.5,428.2 166.8,428.2 163.5,423.5 157.8,428.4 157.2,429.4 159.8,429.4 163.1,426.5 165.2,429.4 180.2,429.4 
		188.1,422.7 192.2,422.7 195.5,425.7 197.9,428.3 198.5,429 	"/>
	<polygon class="st2" points="106.9,417 106.5,416 102.1,405.2 99.8,398.8 97.8,392.4 97.7,390.6 97.7,389.6 95.7,389.6 95.7,390.6 
		95.8,392.6 97.9,399.5 100.2,405.9 104.9,417.4 105,417.7 	"/>
	<path class="st2" d="M132.6,398.2h0.9l-0.1-1l-4.1,3.6c-0.6-0.8-1.2-1.5-1.5-1.9c0-0.7,0-2,0-4.6l3.1-5.7h-20.3h-1v2h1h16.9
		l-1.8,3.2v0.3c0,1.9,0.1,4,0,4.7c-0.3,0.6,0.3,1.4,2.7,4.1l0.7,0.8l2.6-2.3l0.2,2.2v5.1l-1.4,2.3l-0.5,0.8l1.7,1.1l0.4-0.6l1.9-3
		v-5.7l-0.3-3.2h-1.1L132.6,398.2z"/>
	<path class="st2" d="M153.8,360.9l-7-10.2l-0.4-0.5l-1.6,1.1l0.3,0.4l7.1,10.2l4,6.6l2.6,5.4c0.1-0.1,0.1-0.1,0.2-0.2v-4l-1.1-2.2
		L153.8,360.9z"/>
	<path class="st2" d="M190.6,421.7v-1v-11.3l-2.4-6l-7.2-7.1l-3.4-1.9l-2.4-2.3l-0.8-3.3l-0.5-2l-0.5-1.8l-7.3-6l-5.2-5v0.9
		l-0.3,0.3c-0.2,0.2-0.5,0.4-0.7,0.6l4.9,4.7l6.9,5.7l1.8,7l2.9,2.8l3.4,1.9l6.8,6.7l2.1,5.2v10.9v1L190.6,421.7L190.6,421.7z"/>
	<polygon class="st2" points="210.9,398.8 210.9,374.6 214.9,369.4 211.2,365.8 210.8,366.5 209,365.6 209.4,364.9 205.3,364.2 
		202.4,358.9 202.2,358.6 202.2,355.9 202.2,353.6 200.1,347.6 194.4,342.3 186.9,334.8 186.9,322.9 186.9,322.2 184.9,322.2 
		184.9,323.7 184.9,335.6 193,343.7 198.3,348.7 200.2,354 200.2,358.5 200.2,359.1 201.1,360.7 204,366 209.5,367 212.3,369.6 
		208.9,374 208.9,399.7 212.6,402.7 212.6,414.2 212.6,415.4 214.6,415.4 214.6,414.5 214.6,401.7 	"/>
	<polygon class="st2" points="185.9,366.7 188.8,367 189,365.1 188.7,365 181.3,364.2 180.1,361.8 179.3,362.4 178.4,362.8 180,366 
			"/>
	<polygon class="st2" points="178.4,355.8 175.3,346.8 174.1,342.5 168.4,336.4 166.4,330 166,329 164.1,329.6 164.4,330.5 
		166.7,337.4 172.3,343.5 173.4,347.4 176.4,356.1 176.4,358 177.6,361 178.3,360.6 179.3,359.9 178.4,357.6 	"/>
	<path class="st2" d="M222.7,363.9l-3.7-5.4l-7.6,2.2l-2.1,4.3l-0.3,0.7l1.8,0.9l0.3-0.7l1.7-3.5l5.3-1.5l3.4,5.1h17.3l5.1-8
		c-0.5-0.5-0.9-1-1.3-1.6l-4.9,7.6L222.7,363.9L222.7,363.9z"/>
	<path class="st2" d="M160.9,374.8v-0.9v-4l9.7-2.9l7.8-4.2l0.9-0.5l0.8-0.6l3.5-2.6h7.5l1.3,3.6l0.3,0.7l1.9-0.7l-0.3-0.9l-1.8-4.7
		H183l-3.7,2.7l-1,0.7l-0.7,0.4l-7.7,4.1l-11,3.3v1.5v4c-0.1,0.1-0.1,0.1-0.2,0.2c-6.7,5.9-7.1,7.2-7.1,7.7
		c-0.3,0.7-2.6,3.5-4.7,5.7l-3.1,4.5l-5,6.2l-5.3,0.1h-0.9v2h1.1l6.1-0.1l5.7-7l3-4.4c3.3-3.4,5-5.7,5.2-6.8
		c0.4-0.8,3.4-3.7,6.3-6.3c0.2-0.2,0.5-0.4,0.7-0.6L160.9,374.8z"/>
	<polygon class="st2" points="227.1,418.1 227.3,418.3 232.5,422.4 236.8,429.4 239.2,429.4 234,421 228.7,416.9 228.3,416.6 	"/>
	<path class="st2" d="M720.3,96.6c-3.7,0.1-7,0.8-10.5,1.7c-1.6,0.4-3.3,0.8-5.1,1.2c-9.9,2-17.5,7.3-24.6,13
		c-0.5,0.4-1.1,0.9-1.6,1.3c-0.9,0.8-1.8,1.5-2.7,2.3c-3.3,2.8-6.7,5.7-10.3,8.2c-2.2,1.6-3.7,3.3-5.1,5c-0.6,0.7-1.2,1.5-1.9,2.1
		c-1.1,1.1-2.4,2-3.8,2.9c-1.3,0.8-2.6,1.7-3.9,2.9c-1.7,1.5-3.5,3.5-5.5,5.8c-0.5,0.5-0.9,1.1-1.4,1.7c-1.7,2.1-3.5,4.5-5.4,7.2
		c-0.9,1.3-1.7,2.7-2.5,4.1c-0.9,1.6-1.7,3-2.7,4.3c-0.9,1.1-1.9,2.2-3,3.3c-0.5,0.5-0.9,0.9-1.4,1.4s-1,1-1.4,1.6
		c-0.9,1.1-1.8,2.3-2.5,3.7c-1.6,3.1-2.1,6.4-2.6,9.5c-0.2,1.3-0.4,2.6-0.7,3.8c-0.7,3.1-1.6,6.4-2.5,9.5c-0.6,2.2-1.3,4.4-1.8,6.6
		c-0.3,1.1-0.6,2.3-0.8,3.4c-0.1,0.3-0.1,0.6-0.2,0.9c-1.3,5.5-2.8,10-6.9,11.6c-2.9,1.1-6.3,1.5-9.8,1.8c-3.7,0.4-7.6,0.8-11.3,2.1
		c-3.5,1.2-7.2,2.4-10.7,3.5c-3.6,1.1-7.4,2.3-11,3.6c-2.8,1-5.7,2.3-8.5,3.8l1.6,1.3l-3.8,4.7l-3.3-2.6
		c-10.1,6.8-19.3,16.6-25.6,27.6c-2.2,3.8-4.2,7.6-6.2,11.4c-0.3,0.6-0.6,1.2-0.9,1.8c-5.1,10.4-9,21.5-9.6,34.5
		c-0.1,1.6-0.1,3.3,0,5.2c0,4.8,0.1,10.7-1.6,13.7c-0.7,1.1-1.8,2-3.2,3.1c-0.8,0.6-1.6,1.2-2.3,1.9c-0.5,0.5-1,1-1.5,1.6
		c-0.3,0.4-0.6,0.8-0.9,1.3c-1,1.6-1.6,3.3-2.1,4.8c-0.6,1.7-1.1,3.1-2,4.3c-1.2,1.4-3.8,2.3-6.3,3.1c-1.6,0.5-3.2,1-4.6,1.7
		c-7.3,3.5-11.2,7.5-14.1,14.1c-2.3,5.4-5.7,8.2-10.4,12.1l-1.3,1.1c-5.6,4.6-10.5,11.4-14.8,17.4l-1.5,2
		c-4.8,6.6-10.5,11.4-16.5,16.4c-1.6,1.4-2.9,3.1-4.2,4.8c-1,1.4-2.1,2.8-3,3.5c-0.4,0.3-0.8,0.3-2.1,0.3c-0.5,0-1.2,0-1.9,0
		c-2.3,0.1-3.6,0.7-4.6,1.1c-0.1,0-0.2,0.1-0.3,0.1c-0.4,0.2-0.7,0.3-1.1,0.5c-0.2,0.1-0.4,0.1-0.6,0.2c-2.6,0.8-4.9,1-8.1,1.1
		l-2.5,0.1l-0.3,2.4c0,0.1,0,0.1,0,0.1c-0.1,0.7-0.1,1.4-0.1,2.1c0,0.1,0,0.2,0,0.3h10.6c0.9-0.2,1.9-0.4,2.9-0.8
		c0.7-0.2,1.3-0.5,1.7-0.7c0.9-0.4,1.4-0.7,2.8-0.7c0.5,0,1,0,1.4,0c1.6,0,3.7,0.1,5.7-1.4c1.7-1.2,3-3,4.3-4.7
		c1-1.4,2.1-2.8,3.2-3.8c6.3-5.3,12.3-10.3,17.5-17.5l1.5-2c4.1-5.7,8.8-12.2,13.8-16.3l1.3-1.1c5-4.1,9.3-7.6,12.1-14.4
		c2.2-5.2,5.2-8.1,11.2-11c1-0.5,2.3-0.9,3.8-1.4c3.2-1,6.9-2.2,9.2-5c1.6-2,2.4-4.2,3-6.1c0.5-1.3,0.9-2.6,1.5-3.6
		c0.7-1.2,1.9-2.1,3.3-3.1c1.6-1.2,3.4-2.6,4.7-4.8c2.6-4.4,2.5-11,2.4-16.8c0-1.8,0-3.4,0-4.8c0.9-17.3,8-31.2,15.9-45
		c8.4-14.8,22.4-27.1,36.3-32.1c3.5-1.3,7.2-2.4,10.8-3.5s7.4-2.3,11-3.5c3.1-1.1,6.4-1.5,10-1.8c3.8-0.4,7.6-0.8,11.3-2.2
		c7.7-2.9,9.6-11.3,10.9-16.8c0.7-3.2,1.7-6.4,2.6-9.6c0.9-3.2,1.9-6.5,2.6-9.8c0.3-1.4,0.5-2.8,0.8-4.1c0.5-2.8,0.9-5.5,2-7.8
		c1-1.9,2.5-3.5,4.2-5.2c1.2-1.2,2.4-2.4,3.5-3.8c1.2-1.6,2.2-3.3,3.2-5c0.7-1.3,1.4-2.5,2.2-3.6c4.4-6.3,8.3-10.9,11.4-13.7
		c1-0.9,2-1.6,3.2-2.3c1.6-1,3.3-2.1,4.9-3.8c0.8-0.8,1.5-1.6,2.1-2.4c1.3-1.5,2.4-2.8,4-4c3.8-2.7,7.3-5.6,10.7-8.5
		c8.1-6.8,15.7-13.2,26.2-15.3c2-0.4,3.7-0.8,5.4-1.2c3.3-0.8,6.1-1.5,9.1-1.5v-6.4H720.3z"/>
	<path class="st2" d="M717.3,62.1c0.8,0.9,1.9,1.4,3,1.6V44.6c-0.3,0.7-0.7,1.4-1.1,2.3c0,0.1-4,9.3-3,13.3c0.1,0.3,0.2,0.6,0.3,0.8
		C716.7,61.4,717,61.8,717.3,62.1z"/>
	<polygon class="st2" points="50.9,176.2 52.9,176 90.7,170.7 90.7,167.3 96.7,167.2 96.7,169.8 98.7,169.6 99.2,169.5 109.2,164.5 
		111,163.6 118.7,159.7 126.7,159.7 131.5,157 133.7,155.8 169.3,135.9 178.5,134.6 180.5,134.4 213.8,129.7 215.9,129.4 218,129.1 
		258.1,127.2 260.4,127 297.6,125.2 310.6,136.6 312.5,138.2 318.3,143.3 318.3,155.1 345.1,152.6 347.3,152.4 374.9,149.8 
		411,146.2 413,146 414.2,145.9 430.2,145.9 450.9,156.2 455.2,160.2 456.9,161.8 463.6,168 474.6,174 492.2,187.7 499.1,192.5 
		500.7,193.7 502,194.5 509,201.6 525.9,210.5 535.4,218.2 544.2,226.9 552.6,233.7 555.9,236.3 559.6,231.6 558,230.4 549.8,223.7 
		548.3,222.6 548,222.2 539.6,213.8 529.2,205.5 512.6,196.7 506,190.1 504.3,188.9 502.7,187.7 495.8,182.9 478.1,169.1 
		467.2,163.1 458.4,155 456.7,153.5 454.3,151.3 433.4,140.8 431.6,139.9 431.6,139.9 414.1,139.9 413,140 411,140.2 374.3,143.9 
		370,144.3 368,144.4 324.3,148.5 324.3,140.5 318.4,135.4 316.9,134.1 299.7,119.1 294.7,119.4 292.7,119.5 261.4,121 259.4,121.1 
		225.4,122.7 223.4,122.8 217.6,123.1 206.1,124.7 204.1,125 170.9,129.6 168.9,129.9 167.4,130.1 144.6,142.9 142.6,144 
		125.2,153.7 117.3,153.7 106.2,159.3 104.2,160.3 97.4,163.7 94.3,164.1 91.8,164.5 52,170 48.4,170.5 21.5,174.3 18.2,174.8 
		0.3,177.3 0.3,183.3 17.2,181 19.2,180.7 	"/>
	<path class="st2" d="M309.4,429.2c-0.5,0.1-1,0.1-1.5,0.2h8.9c-0.2-0.1-0.5-0.2-0.7-0.2C313.9,428.6,311.6,428.9,309.4,429.2z"/>
	<path class="st2" d="M291.8,386.5c-4.2-6.5-8-10.8-15.2-14.5c-0.7-0.3-1.4-0.7-2.1-1c-0.3-0.1-0.5-0.2-0.7-0.3
		c-4.8-2.1-9-4.1-12.9-6.6c-0.6-0.4-1.1-0.7-1.7-1.1c-2.8-1.9-5.4-4-7.8-6.5c-0.5-0.5-1.1-1-1.6-1.5c-1.2-1.1-2.1-1.9-2.7-3.2
		c-0.7-1.5-1.1-3.2-1.4-4.9c-0.6-2.6-1.2-5.6-3.4-8.4c-0.6-0.8-1.2-1.6-1.8-2.4c-2.3-3.1-4.8-6.4-8-8.8c-0.6-0.5-1.3-0.9-1.9-1.2
		s-1.3-0.6-1.9-0.8c-1.1-0.4-2.2-0.7-3.3-1c-2.1-0.5-3.9-1-5.2-2.2c-1.3-1.2-2.4-2.6-3.6-4.2c-1.2-1.6-2.4-3.2-4-4.7
		c-1.4-1.3-2.8-2.3-4.2-3.3c-0.1-0.1-0.2-0.2-0.3-0.2c-0.7-0.5-1.4-1-2-1.5c-0.9-0.8-1.8-1.6-2.5-2.5c-1-1.3-1.6-2.4-2.2-3.7
		c-1.1-2.2-2.2-4.4-5-6.3c-2-1.4-4.3-2.2-6.6-3c-1.8-0.6-3.4-1.2-4.9-2.1c-0.8-0.5-1.6-1-2.4-1.4c-2.6-1.6-5.3-3.2-8.5-4.4
		c-0.9-0.3-2.1-0.7-3.6-1c-0.9-0.2-2.2-0.6-3.4-0.9c-0.7-0.2-1.3-0.4-1.8-0.6c0-0.3,0-0.8,0.1-1.1c0-0.2,0-0.5,0.1-0.7
		c0.1-1.3,0.1-2.6-0.5-3.8c-0.6-1.1-1.7-2.1-3.3-3.4c-0.5-0.4-1.1-0.9-1.3-1.1c-2-2.2-3.8-5.1-5.5-7.9c-1-1.7-2-3.4-3.2-5
		c-0.4-0.6-0.8-1.2-1.2-1.8c-0.4-0.6-0.8-1.2-1.1-1.7c-2.4-3.8-4.5-7.6-6.2-11.4c-0.4-0.8-0.7-1.6-1.1-2.4
		c-1.9-4.3-3.8-8.8-6.9-12.6c-0.1-0.1-6.3-7.6-11.4-9.8c-0.7-0.3-1.4-0.5-2-0.6c-0.3,0-0.6,0-0.8,0c-2.5,0.3-4.2,1.7-5.6,2.9
		c-1.4,1.2-2.4,1.9-3.8,2c-2.9-0.5-5.8-3.4-7.9-5.5l-0.2-0.2c-3.2-2.6-6.4-5.4-11-6.5h-0.1c-2.1-0.4-3.8-1.3-5.7-2.2
		c-1.5-0.8-3.5-1.7-4.1-2.4c-1-1-1.1-1.9-1.1-4.3c0-0.6-0.1-1.2-0.1-1.9c-0.1-0.8-0.2-2.2,0-2.6l0.1-0.2c0.1-0.6,0.9-1.4,1.5-2.1
		c0.5-0.6,1-1.1,1.5-1.8c1-1.4,1.7-3,2.2-4.2c0.3-0.7,0.6-1.4,0.8-1.8l0.1-0.1c0.5-0.8,1.2-1.3,2.4-2c0.9-0.5,1.8-1.2,2.8-2.1
		c0.6-0.4,1.1-0.9,1.5-1.3c0.2-0.2,0.4-0.4,0.5-0.5h2.7l-0.2-12.1v-2.7l-6,0.1l0.1,3.4l0.1,6.3c-0.6,0.5-1.1,1-1.5,1.4
		c-0.1,0.1-0.3,0.3-0.4,0.4l-0.3,0.2l-0.3,0.3c-0.6,0.6-1.3,1-2,1.5c-1.4,0.9-3.1,1.9-4.3,4c-0.6,0.9-1,1.9-1.4,2.8
		c-0.4,1-0.9,2.1-1.5,2.9l-0.1,0.1c-0.2,0.3-0.6,0.7-1,1.2c-1,1.2-2.3,2.6-2.9,4.6c-0.5,1.6-0.3,3.3-0.2,4.9c0,0.2,0,0.4,0,0.6
		c0,0.3,0,0.6,0,0.8c0,0.4,0,0.8,0,1.2c0.1,2.3,0.4,4.9,2.8,7.3c0.3,0.3,0.7,0.7,1.2,1c0.5,0.4,1.1,0.7,1.7,1.1
		c0.9,0.5,1.9,1,2.9,1.5c2.1,1,4.3,2.1,7.1,2.7c3.2,0.8,5.8,2.9,8.5,5.2c1.9,1.9,4.4,4.4,7.5,5.9c0.6,0.3,1.2,0.6,1.8,0.8
		c0.5,0.2,1,0.3,1.6,0.4c0.2,0,0.4,0.1,0.7,0.1h0.4c0.3,0,0.7,0,1-0.1c3.3-0.3,5.4-2,6.9-3.3c0.9-0.8,1.6-1.3,2.2-1.5
		c1.8,0.7,7.1,5.6,9.1,8.1c2.6,3.2,4.3,7.3,6.1,11.2c0.4,0.8,0.7,1.7,1.1,2.5c0.6,1.4,1.3,2.8,2,4.2c0.3,0.6,0.6,1.2,0.9,1.8
		c1.8,3.3,3.8,6.6,6.1,9.8c1,1.4,1.9,3,2.9,4.7c1.9,3.1,3.8,6.3,6.2,8.9c0.5,0.5,1.1,1,1.9,1.6c0.5,0.4,1.3,1,1.6,1.4
		c0,0.4,0,1-0.1,1.4c-0.1,0.8-0.1,1.7,0,2.6c0,0.4,0.1,0.8,0.2,1.2s0.3,0.8,0.5,1.1c0.6,0.9,1.6,1.6,3,2.2c1.4,0.6,3.3,1.1,5.8,1.7
		c1.2,0.3,2.4,0.6,2.9,0.8c2.7,1,5.1,2.5,7.6,4c0.8,0.5,1.7,1,2.5,1.5c1.9,1.1,3.9,1.8,5.8,2.5c2,0.7,3.8,1.4,5.3,2.4s2.1,2.2,3,4
		c0.7,1.4,1.5,3,2.8,4.7c1.5,2,3.3,3.4,5.1,4.7c0.3,0.2,0.7,0.5,1,0.7c0.2,0.2,0.4,0.3,0.6,0.5c1,0.8,2,1.5,2.9,2.3
		c1.2,1.1,2.2,2.5,3.3,3.9c1.3,1.7,2.7,3.6,4.4,5.1c2.4,2.1,5.2,2.9,7.7,3.5c0,0,0,0,0.1,0c0.8,0.2,1.6,0.4,2.3,0.7
		c1,0.3,1.9,0.7,2.7,1.3c2.5,1.9,4.7,4.8,6.8,7.5c0.6,0.9,1.3,1.7,1.9,2.5c1.3,1.7,1.7,3.6,2.2,5.9c0.4,1.9,0.9,4,1.9,6.2
		c0.3,0.7,0.7,1.3,1.1,1.9c0.4,0.6,0.9,1.1,1.3,1.6c0.5,0.6,1.1,1,1.6,1.5c0.4,0.4,0.9,0.8,1.4,1.3c7.3,7.5,16,11.9,24.3,15.5
		c3.5,1.5,6.1,3,8.4,5c0.5,0.4,1,0.9,1.5,1.4c1.9,1.9,3.7,4.2,5.7,7.3c6.6,10.1,9.5,20.5,12.5,31.6c0.7,2.6,1.5,5.3,2.3,8h6.3
		c-1-3.3-1.9-6.5-2.7-9.6c-0.5-2-1.1-3.9-1.6-5.8c-0.2-0.7-0.4-1.4-0.6-2.1C300.3,403.2,297.2,394.8,291.8,386.5z"/>
	<path class="st2" d="M7,149.7c0.1-0.1,0.2-0.1,0.3-0.2l0.7-0.4l0.4-0.7c2.2-3.4,1.7-8.1,1.2-12.6c-0.4-3.7-0.8-7.6,0.4-9.8
		c0.7-1.3,4.1-3.6,6.4-5.1c1.1-0.8,2.2-1.5,3.1-2.2c0.3-0.2,0.6-0.4,0.8-0.6c0.2-0.2,0.5-0.4,0.7-0.6c0.7-0.6,1.4-1.2,2.1-1.8
		c3.3-2.8,6.7-5.6,10.5-7c2.4-0.8,5-1.1,7.7-1.3c3-0.3,6-0.6,9.1-1.6c5-1.7,8.2-4.2,12.3-7.2l0.4-0.3c3.5-2.6,5-5.2,6.3-7.5
		c0.4-0.8,0.9-1.5,1.4-2.3c0.4-0.6,0.8-1.2,1.4-1.8c0,0,0-0.1,0.1-0.1c1.6-1.7,5.4-3.4,8.8-4.8c2.2-1,4.3-1.9,6.1-2.9l0.3-0.2
		c3.8-2.2,7.4-4.3,11.4-5.1c0.7-0.1,1.3-0.2,2-0.3l0,0v-0.1l-0.2-2.8l-0.2-3.1c1.5-0.1,2.6,1,2.8,1.8c-0.5-2.2,0.7-15.5,1.6-17.8
		c1.9-3,5.4-4.9,9-7c3.3-1.9,6.8-3.8,9.4-6.7c0.7-0.7,1.3-1.5,1.8-2.3c0.4,0.9,0.8,1.8,1.4,2.6c3,4.4,8.6,6.9,14.4,6.5
		c0.2,0,0.4,0,0.5,0l1.5-0.2l1.8-0.2l-0.6-3.2c-0.7-3.4,2.6-7.6,7-11.3c0.5-0.4,1.1-0.9,1.6-1.3c1.2-0.9,2.5-1.8,3.7-2.7
		c0.8-0.5,1.6-1.1,2.5-1.7c1.1-0.8,2.4-1.8,3.6-2.5c0.9-0.6,1.8-1,2.6-1.2c0.1,0,0.1,0,0.2-0.1c1.1-0.2,2.4,0.4,3.8,1
		c0.4,0.2,0.8,0.3,1.2,0.5c1.3,0.6,2.9,1.1,4.6,1c1,0,2-0.2,3.1-0.7c3.4-1.5,6.1-7.5,9.6-15.9c0.8-1.9,1.5-3.7,2-4.6
		c0.2-0.4,0.5-0.9,0.7-1.3h-6.8c-0.2,0.4-0.4,0.8-0.5,1.3c-0.2,0.6-0.5,1.2-0.8,1.9c-0.1,0.2-0.1,0.3-0.2,0.5
		c-1.4,3.5-4.8,11.5-6.5,12.7c-1,0.4-2,0.1-4-0.9c-2-0.9-4.4-2-7.3-1.5c-1.7,0.3-3.3,1.1-5,2.1c-0.6,0.3-1.1,0.7-1.7,1.1
		c-0.8,0.5-1.6,1.1-2.3,1.6c-0.8,0.6-1.6,1.1-2.2,1.6c-5.5,3.6-13.9,10.3-15,17.9c-2.7-0.4-5.2-1.8-6.6-3.9c-0.8-1.2-1.5-3-0.9-5.3
		c0.1-0.6,0.4-1.2,0.7-1.8l1.1-2.2l3.7-7.3l-9.1,5.6c-1.2,0.8-2.2,1.7-3.1,2.7c-0.5,0.6-0.9,1.2-1.4,1.8c-0.4,0.6-0.8,1.3-1.2,1.9
		c-0.8,1.3-1.6,2.6-2.5,3.6c-2,2.2-4.9,3.8-7.9,5.5c-4.2,2.4-8.5,4.8-11.2,9.1c-0.2,0.3-0.4,0.8-0.6,1.5c-0.2,0.6-0.3,1.3-0.5,2.2
		C97.7,56,96.9,63,97,67.5c-4.9,1-9.1,3.5-12.9,5.7l-0.3,0.2c-1.4,0.8-3.3,1.7-5.4,2.6c-3.4,1.5-6.8,3-9.3,4.9
		c-0.5,0.4-1.1,0.9-1.5,1.3l0,0c-1.7,1.9-2.7,3.7-3.6,5.2c-1.2,2.1-2.1,3.8-4.6,5.6L59,93.3c-4,3-6.6,4.9-10.7,6.4
		c-2.4,0.8-5,1.1-7.7,1.3c-2.1,0.2-4.2,0.4-6.4,0.9c-0.7,0.1-1.3,0.3-2,0.5c-0.2,0.1-0.5,0.2-0.7,0.2c-4.8,1.7-8.6,4.9-12.3,8
		c-0.9,0.8-1.8,1.5-2.8,2.3c-0.9,0.7-2.2,1.6-3.6,2.5c-1.9,1.3-3.9,2.6-5.5,4c-0.6,0.5-1.1,1-1.5,1.4c-0.5,0.6-1,1.2-1.3,1.8
		c-2,3.8-1.5,8.6-1,13.3c0.3,3,0.7,6.3,0,8.1c-0.3,0.2-0.6,0.3-0.9,0.5c-0.5,0.3-1.4,0.8-1.8,1l0,0c-0.3,0-0.5,0.1-0.8,0.2v6.1
		c0.5-0.1,1.1-0.2,1.6-0.3c0.9-0.1,1.8-0.5,3.1-1.2c0.3-0.1,0.5-0.3,0.8-0.5C6.3,150.1,6.7,149.9,7,149.7z"/>
</g>
</svg>
